v 20110115 2
L 300 1400 400 1300 3 0 0 0 -1 -1
L 400 1300 300 1200 3 0 0 0 -1 -1
B 300 300 1400 1600 3 0 0 0 -1 -1 0 -1 -1 -1 -1 -1
T 1300 2400 5 10 0 0 0 0 1
slot=1
T 1300 2600 5 10 0 0 0 0 1
numslots=2
T 1300 2800 5 10 0 0 0 0 1
slotdef=1:1,2,3,4,5,6,7,14
T 1300 3000 5 10 0 0 0 0 1
slotdef=2:13,12,11,10,9,8,7,14
P 2000 1700 1700 1700 1 0 0
{
T 1800 1750 5 10 1 1 0 0 1
pinnumber=3
T 1400 1650 5 10 1 1 0 0 1
pinlabel=Q0
T 2000 1700 5 10 0 0 0 0 1
pinseq=3
}
T 500 2000 8 10 1 1 0 6 1
refdes=U?
P 0 900 300 900 1 0 0
{
T 205 945 5 10 1 1 0 6 1
pinnumber=2
T 455 845 5 10 1 1 0 0 1
pinlabel=RST
T 0 900 5 10 0 0 0 0 1
pinseq=2
}
P 0 1300 200 1300 1 0 0
{
T 205 1345 5 10 1 1 0 6 1
pinnumber=1
T 455 1245 5 10 1 1 0 0 1
pinlabel=CLK
T 0 1300 5 10 0 0 0 0 1
pinseq=1
}
P 1000 1900 1000 2200 1 0 1
{
T 955 2100 5 10 1 1 180 0 1
pinnumber=14
T 855 1800 5 10 1 1 180 6 1
pinlabel=VCC
T 1000 1900 5 10 0 0 0 0 1
pinseq=14
}
P 1000 300 1000 0 1 0 1
{
T 845 250 5 10 1 1 180 6 1
pinnumber=7
T 1145 500 5 10 1 1 180 0 1
pinlabel=GND
T 1000 300 5 10 0 0 0 0 1
pinseq=7
}
V 250 1300 50 6 0 0 0 -1 -1 0 -1 -1 -1 -1 -1
P 2000 1300 1700 1300 1 0 0
{
T 1800 1350 5 10 1 1 0 0 1
pinnumber=4
T 1400 1250 5 10 1 1 0 0 1
pinlabel=Q1
T 2000 1300 5 10 0 0 0 0 1
pinseq=4
}
P 2000 900 1700 900 1 0 0
{
T 1800 950 5 10 1 1 0 0 1
pinnumber=5
T 1400 850 5 10 1 1 0 0 1
pinlabel=Q2
T 2000 900 5 10 0 0 0 0 1
pinseq=5
}
P 2000 500 1700 500 1 0 0
{
T 1800 550 5 10 1 1 0 0 1
pinnumber=6
T 1400 450 5 10 1 1 0 0 1
pinlabel=Q3
T 2000 500 5 10 0 0 0 0 1
pinseq=6
}
T 1200 2000 8 10 1 1 0 0 1
value=74HC393
