v 20110115 2
P 0 3200 300 3200 1 0 0
{
T 200 3250 5 8 1 1 0 6 1
pinnumber=2
T 400 3150 9 8 1 1 0 0 1
pinlabel=D1
}
P 0 2900 300 2900 1 0 0
{
T 200 2950 5 8 1 1 0 6 1
pinnumber=3
T 400 2850 9 8 1 1 0 0 1
pinlabel=D2
}
P 0 2600 300 2600 1 0 0
{
T 200 2650 5 8 1 1 0 6 1
pinnumber=4
T 400 2550 9 8 1 1 0 0 1
pinlabel=D3
}
P 0 2300 300 2300 1 0 0
{
T 200 2350 5 8 1 1 0 6 1
pinnumber=5
T 400 2250 9 8 1 1 0 0 1
pinlabel=D4
}
P 0 2000 300 2000 1 0 0
{
T 200 2050 5 8 1 1 0 6 1
pinnumber=6
T 400 1950 9 8 1 1 0 0 1
pinlabel=D5
}
P 0 1700 300 1700 1 0 0
{
T 200 1750 5 8 1 1 0 6 1
pinnumber=7
T 400 1650 9 8 1 1 0 0 1
pinlabel=D6
}
P 0 1400 300 1400 1 0 0
{
T 200 1450 5 8 1 1 0 6 1
pinnumber=8
T 400 1350 9 8 1 1 0 0 1
pinlabel=D7
}
P 0 1100 300 1100 1 0 0
{
T 200 1150 5 8 1 1 0 6 1
pinnumber=9
T 400 1050 9 8 1 1 0 0 1
pinlabel=D8
}
V 250 500 50 6 0 0 0 -1 -1 0 -1 -1 -1 -1 -1
P 0 500 200 500 1 0 0
{
T 200 550 5 8 1 1 0 6 1
pinnumber=1
T 400 450 9 8 1 1 0 0 1
pinlabel=\_OE\_
}
P 1700 3200 2000 3200 1 0 1
{
T 1800 3250 5 8 1 1 0 0 1
pinnumber=19
T 1600 3150 9 8 1 1 0 6 1
pinlabel=Q1
}
P 1700 2900 2000 2900 1 0 1
{
T 1800 2950 5 8 1 1 0 0 1
pinnumber=18
T 1600 2850 9 8 1 1 0 6 1
pinlabel=Q2
}
P 1700 2600 2000 2600 1 0 1
{
T 1800 2650 5 8 1 1 0 0 1
pinnumber=17
T 1600 2550 9 8 1 1 0 6 1
pinlabel=Q3
}
P 1700 2300 2000 2300 1 0 1
{
T 1800 2350 5 8 1 1 0 0 1
pinnumber=16
T 1600 2250 9 8 1 1 0 6 1
pinlabel=Q4
}
P 1700 2000 2000 2000 1 0 1
{
T 1800 2050 5 8 1 1 0 0 1
pinnumber=15
T 1600 1950 9 8 1 1 0 6 1
pinlabel=Q5
}
P 1700 1700 2000 1700 1 0 1
{
T 1800 1750 5 8 1 1 0 0 1
pinnumber=14
T 1600 1650 9 8 1 1 0 6 1
pinlabel=Q6
}
P 1700 1400 2000 1400 1 0 1
{
T 1800 1450 5 8 1 1 0 0 1
pinnumber=13
T 1600 1350 9 8 1 1 0 6 1
pinlabel=Q7
}
P 1700 1100 2000 1100 1 0 1
{
T 1800 1150 5 8 1 1 0 0 1
pinnumber=12
T 1600 1050 9 8 1 1 0 6 1
pinlabel=Q8
}
B 300 0 1400 3400 3 0 0 0 -1 -1 0 -1 -1 -1 -1 -1
P 300 200 0 200 1 0 1
{
T 200 250 5 8 1 1 0 6 1
pinnumber=11
T 400 150 9 8 1 1 0 0 1
pinlabel=LE
}
T 1700 3450 8 10 1 1 0 6 1
refdes=U?
P 1700 500 2000 500 1 0 1
{
T 1800 550 5 8 1 1 0 0 1
pinnumber=20
T 1600 450 9 8 1 1 0 6 1
pinlabel=VCC
}
P 1700 200 2000 200 1 0 1
{
T 1800 250 5 8 1 1 0 0 1
pinnumber=10
T 1600 150 9 8 1 1 0 6 1
pinlabel=GND
}
T 300 3450 8 10 1 1 0 0 1
value=74HC573
