v 20130925 2
P 0 6200 300 6200 1 0 0
{
T 200 6250 5 8 1 1 0 6 1
pinnumber=23
T 200 6150 5 8 0 1 0 8 1
pinseq=1
T 350 6200 9 8 1 1 0 0 1
pinlabel=A0
T 350 6200 5 8 0 1 0 2 1
pintype=in
}
P 2000 6200 1800 6200 1 0 0
{
T 1800 6250 5 8 1 1 0 0 1
pinnumber=1
T 1800 6150 5 8 0 1 0 2 1
pinseq=2
T 1650 6200 9 8 1 1 0 6 1
pinlabel=Y0
T 1650 6200 5 8 0 1 0 8 1
pintype=out
}
V 1750 6200 50 6 0 0 0 -1 -1 0 -1 -1 -1 -1 -1
P 0 5800 300 5800 1 0 0
{
T 200 5850 5 8 1 1 0 6 1
pinnumber=22
T 200 5750 5 8 0 1 0 8 1
pinseq=3
T 350 5800 9 8 1 1 0 0 1
pinlabel=A1
T 350 5800 5 8 0 1 0 2 1
pintype=in
}
P 2000 5800 1800 5800 1 0 0
{
T 1800 5850 5 8 1 1 0 0 1
pinnumber=2
T 1800 5750 5 8 0 1 0 2 1
pinseq=4
T 1650 5800 9 8 1 1 0 6 1
pinlabel=Y1
T 1650 5800 5 8 0 1 0 8 1
pintype=out
}
V 1750 5800 50 6 0 0 0 -1 -1 0 -1 -1 -1 -1 -1
P 0 5400 300 5400 1 0 0
{
T 200 5450 5 8 1 1 0 6 1
pinnumber=21
T 200 5350 5 8 0 1 0 8 1
pinseq=5
T 350 5400 9 8 1 1 0 0 1
pinlabel=A2
T 350 5400 5 8 0 1 0 2 1
pintype=in
}
P 2000 5400 1800 5400 1 0 0
{
T 1800 5450 5 8 1 1 0 0 1
pinnumber=3
T 1800 5350 5 8 0 1 0 2 1
pinseq=6
T 1650 5400 9 8 1 1 0 6 1
pinlabel=Y2
T 1650 5400 5 8 0 1 0 8 1
pintype=out
}
V 1750 5400 50 6 0 0 0 -1 -1 0 -1 -1 -1 -1 -1
P 0 5000 300 5000 1 0 0
{
T 200 5050 5 8 1 1 0 6 1
pinnumber=20
T 200 4950 5 8 0 1 0 8 1
pinseq=7
T 350 5000 9 8 1 1 0 0 1
pinlabel=A3
T 350 5000 5 8 0 1 0 2 1
pintype=in
}
P 2000 5000 1800 5000 1 0 0
{
T 1800 5050 5 8 1 1 0 0 1
pinnumber=4
T 1800 4950 5 8 0 1 0 2 1
pinseq=8
T 1650 5000 9 8 1 1 0 6 1
pinlabel=Y3
T 1650 5000 5 8 0 1 0 8 1
pintype=out
}
V 1750 5000 50 6 0 0 0 -1 -1 0 -1 -1 -1 -1 -1
P 0 4600 200 4600 1 0 0
{
T 200 4650 5 8 1 1 0 6 1
pinnumber=18
T 200 4550 5 8 0 1 0 8 1
pinseq=9
T 350 4600 9 8 1 1 0 0 1
pinlabel=EN1
T 350 4600 5 8 0 1 0 2 1
pintype=in
}
V 250 4600 50 6 0 0 0 -1 -1 0 -1 -1 -1 -1 -1
P 2000 4600 1800 4600 1 0 0
{
T 1800 4650 5 8 1 1 0 0 1
pinnumber=5
T 1800 4550 5 8 0 1 0 2 1
pinseq=10
T 1650 4600 9 8 1 1 0 6 1
pinlabel=Y4
T 1650 4600 5 8 0 1 0 8 1
pintype=out
}
V 1750 4600 50 6 0 0 0 -1 -1 0 -1 -1 -1 -1 -1
P 0 4200 200 4200 1 0 0
{
T 200 4250 5 8 1 1 0 6 1
pinnumber=19
T 200 4150 5 8 0 1 0 8 1
pinseq=11
T 350 4200 9 8 1 1 0 0 1
pinlabel=EN2
T 350 4200 5 8 0 1 0 2 1
pintype=in
}
V 250 4200 50 6 0 0 0 -1 -1 0 -1 -1 -1 -1 -1
P 2000 4200 1800 4200 1 0 0
{
T 1800 4250 5 8 1 1 0 0 1
pinnumber=6
T 1800 4150 5 8 0 1 0 2 1
pinseq=12
T 1650 4200 9 8 1 1 0 6 1
pinlabel=Y5
T 1650 4200 5 8 0 1 0 8 1
pintype=out
}
V 1750 4200 50 6 0 0 0 -1 -1 0 -1 -1 -1 -1 -1
P 2000 3800 1800 3800 1 0 0
{
T 1800 3850 5 8 1 1 0 0 1
pinnumber=7
T 1800 3750 5 8 0 1 0 2 1
pinseq=13
T 1650 3800 9 8 1 1 0 6 1
pinlabel=Y6
T 1650 3800 5 8 0 1 0 8 1
pintype=out
}
V 1750 3800 50 6 0 0 0 -1 -1 0 -1 -1 -1 -1 -1
P 2000 3400 1800 3400 1 0 0
{
T 1800 3450 5 8 1 1 0 0 1
pinnumber=8
T 1800 3350 5 8 0 1 0 2 1
pinseq=14
T 1650 3400 9 8 1 1 0 6 1
pinlabel=Y7
T 1650 3400 5 8 0 1 0 8 1
pintype=out
}
V 1750 3400 50 6 0 0 0 -1 -1 0 -1 -1 -1 -1 -1
P 2000 3000 1800 3000 1 0 0
{
T 1800 3050 5 8 1 1 0 0 1
pinnumber=9
T 1800 2950 5 8 0 1 0 2 1
pinseq=15
T 1650 3000 9 8 1 1 0 6 1
pinlabel=Y8
T 1650 3000 5 8 0 1 0 8 1
pintype=out
}
V 1750 3000 50 6 0 0 0 -1 -1 0 -1 -1 -1 -1 -1
P 2000 2600 1800 2600 1 0 0
{
T 1800 2650 5 8 1 1 0 0 1
pinnumber=10
T 1800 2550 5 8 0 1 0 2 1
pinseq=16
T 1650 2600 9 8 1 1 0 6 1
pinlabel=Y9
T 1650 2600 5 8 0 1 0 8 1
pintype=out
}
V 1750 2600 50 6 0 0 0 -1 -1 0 -1 -1 -1 -1 -1
P 2000 2200 1800 2200 1 0 0
{
T 1800 2250 5 8 1 1 0 0 1
pinnumber=11
T 1800 2150 5 8 0 1 0 2 1
pinseq=17
T 1650 2200 9 8 1 1 0 6 1
pinlabel=Y10
T 1650 2200 5 8 0 1 0 8 1
pintype=out
}
V 1750 2200 50 6 0 0 0 -1 -1 0 -1 -1 -1 -1 -1
P 2000 1800 1800 1800 1 0 0
{
T 1800 1850 5 8 1 1 0 0 1
pinnumber=13
T 1800 1750 5 8 0 1 0 2 1
pinseq=18
T 1650 1800 9 8 1 1 0 6 1
pinlabel=Y11
T 1650 1800 5 8 0 1 0 8 1
pintype=out
}
V 1750 1800 50 6 0 0 0 -1 -1 0 -1 -1 -1 -1 -1
P 2000 1400 1800 1400 1 0 0
{
T 1800 1450 5 8 1 1 0 0 1
pinnumber=14
T 1800 1350 5 8 0 1 0 2 1
pinseq=19
T 1650 1400 9 8 1 1 0 6 1
pinlabel=Y12
T 1650 1400 5 8 0 1 0 8 1
pintype=out
}
V 1750 1400 50 6 0 0 0 -1 -1 0 -1 -1 -1 -1 -1
P 2000 1000 1800 1000 1 0 0
{
T 1800 1050 5 8 1 1 0 0 1
pinnumber=15
T 1800 950 5 8 0 1 0 2 1
pinseq=20
T 1650 1000 9 8 1 1 0 6 1
pinlabel=Y13
T 1650 1000 5 8 0 1 0 8 1
pintype=out
}
V 1750 1000 50 6 0 0 0 -1 -1 0 -1 -1 -1 -1 -1
P 2000 600 1800 600 1 0 0
{
T 1800 650 5 8 1 1 0 0 1
pinnumber=16
T 1800 550 5 8 0 1 0 2 1
pinseq=21
T 1650 600 9 8 1 1 0 6 1
pinlabel=Y14
T 1650 600 5 8 0 1 0 8 1
pintype=out
}
V 1750 600 50 6 0 0 0 -1 -1 0 -1 -1 -1 -1 -1
P 2000 200 1800 200 1 0 0
{
T 1800 250 5 8 1 1 0 0 1
pinnumber=17
T 1800 150 5 8 0 1 0 2 1
pinseq=22
T 1650 200 9 8 1 1 0 6 1
pinlabel=Y15
T 1650 200 5 8 0 1 0 8 1
pintype=out
}
V 1750 200 50 6 0 0 0 -1 -1 0 -1 -1 -1 -1 -1
B 300 0 1400 6500 3 0 0 0 -1 -1 0 -1 -1 -1 -1 -1
T 600 6600 8 10 1 1 0 6 1
refdes=U?
T 1000 6600 8 10 1 1 0 0 1
value=74HC154
P 0 3500 300 3500 1 0 0
{
T 200 3550 5 8 1 1 0 6 1
pinnumber=12
T 350 3500 9 8 1 1 0 0 1
pinlabel=GND
T 350 3500 5 8 0 1 0 2 1
pintype=in
}
P 0 3200 300 3200 1 0 0
{
T 200 3250 5 8 1 1 0 6 1
pinnumber=24
T 350 3200 9 8 1 1 0 0 1
pinlabel=VCC
T 350 3200 5 8 0 1 0 2 1
pintype=in
}
