v 20080127 1
P 0 2300 200 2300 1 0 0
{
T 200 2350 5 8 1 1 0 6 1
pinnumber=13
T 350 2300 9 8 1 1 0 0 1
pinlabel=G
}
P 0 2000 300 2000 1 0 0
{
T 200 2050 5 8 1 1 0 6 1
pinnumber=12
T 400 2000 9 8 1 1 0 0 1
pinlabel=RCLK
}
P 0 1400 300 1400 1 0 0
{
T 200 1450 5 8 1 1 0 6 1
pinnumber=11
T 400 1400 9 8 1 1 0 0 1
pinlabel=SRCLK
}
P 0 1100 300 1100 1 0 0
{
T 200 1150 5 8 1 1 0 6 1
pinnumber=14
T 350 1100 9 8 1 1 0 0 1
pinlabel=SER
}
P 1700 2300 2000 2300 1 0 1
{
T 1800 2350 5 8 1 1 0 0 1
pinnumber=15
T 1650 2300 9 8 1 1 0 6 1
pinlabel=QA
}
P 1700 2000 2000 2000 1 0 1
{
T 1800 2050 5 8 1 1 0 0 1
pinnumber=1
T 1650 2000 9 8 1 1 0 6 1
pinlabel=QB
}
P 1700 1700 2000 1700 1 0 1
{
T 1800 1750 5 8 1 1 0 0 1
pinnumber=2
T 1650 1700 9 8 1 1 0 6 1
pinlabel=QC
}
P 1700 1400 2000 1400 1 0 1
{
T 1800 1450 5 8 1 1 0 0 1
pinnumber=3
T 1650 1400 9 8 1 1 0 6 1
pinlabel=QD
}
P 1700 200 2000 200 1 0 1
{
T 1800 250 5 8 1 1 0 0 1
pinnumber=7
T 1650 200 9 8 1 1 0 6 1
pinlabel=QH
}
P 1700 500 2000 500 1 0 1
{
T 1800 550 5 8 1 1 0 0 1
pinnumber=6
T 1650 500 9 8 1 1 0 6 1
pinlabel=QG
}
P 1700 800 2000 800 1 0 1
{
T 1800 850 5 8 1 1 0 0 1
pinnumber=5
T 1650 800 9 8 1 1 0 6 1
pinlabel=QF
}
P 1700 1100 2000 1100 1 0 1
{
T 1800 1150 5 8 1 1 0 0 1
pinnumber=4
T 1650 1100 9 8 1 1 0 6 1
pinlabel=QE
}
V 250 1700 50 6 0 0 0 -1 -1 0 -1 -1 -1 -1 -1
P 0 1700 200 1700 1 0 0
{
T 200 1750 5 8 1 1 0 6 1
pinnumber=10
T 350 1700 9 8 1 1 0 0 1
pinlabel=SRCLR
}
P 0 200 300 200 1 0 0
{
T 200 250 5 8 1 1 0 6 1
pinnumber=9
T 350 200 9 8 1 1 0 0 1
pinlabel=QHs
}
B 300 0 1400 2600 3 0 0 0 -1 -1 0 -1 -1 -1 -1 -1
T 1700 2700 8 10 1 1 0 6 1
refdes=U?
V 250 2300 50 6 0 0 0 -1 -1 0 -1 -1 -1 -1 -1
L 400 1400 300 1475 3 0 0 0 -1 -1
L 400 1400 300 1325 3 0 0 0 -1 -1
L 400 2000 300 2075 3 0 0 0 -1 -1
L 400 2000 300 1925 3 0 0 0 -1 -1
T 300 2700 8 10 1 1 0 0 1
value=74HC595
P 0 500 300 500 1 0 0
{
T 200 550 5 8 1 1 0 6 1
pinnumber=8
T 350 500 9 8 1 1 0 0 1
pinlabel=GND
}
P 0 800 300 800 1 0 0
{
T 200 850 5 8 1 1 0 6 1
pinnumber=16
T 350 800 9 8 1 1 0 0 1
pinlabel=VCC
}
