v 20061020 1
T 2600 2500 2 10 1 1 0 6 1
refdes=U?
P 1500 0 1500 300 1 0 0
{
T 1400 200 5 8 1 1 180 6 1
pinnumber=7
T 1550 400 3 8 1 1 90 0 1
pinlabel=VSET
}
P 1200 2600 1200 2300 1 0 0
{
T 1150 2400 5 8 1 1 90 0 1
pinnumber=15
T 1200 2250 3 8 1 1 90 6 1
pinlabel=INL
}
P 900 2600 900 2300 1 0 0
{
T 725 2400 5 8 1 1 0 0 1
pinnumber=16
T 850 2050 3 8 1 1 90 5 1
pinlabel=ENBL
}
P 0 1400 300 1400 1 0 0
{
T 200 1450 5 8 1 1 0 6 1
pinnumber=2
T 400 1350 3 8 1 1 0 0 1
pinlabel=CMIP
}
P 0 1700 300 1700 1 0 0
{
T 200 1750 5 8 1 1 0 6 1
pinnumber=1
T 400 1650 3 8 1 1 0 0 1
pinlabel=CMIP
}
P 1500 2600 1500 2300 1 0 0
{
T 1450 2400 5 8 1 1 90 0 1
pinnumber=14
T 1500 2250 3 8 1 1 90 6 1
pinlabel=INH
}
P 0 1100 300 1100 1 0 0
{
T 100 1150 5 8 1 1 0 0 1
pinnumber=3
T 400 1050 3 8 1 1 0 0 1
pinlabel=VPSI
}
P 0 800 300 800 1 0 0
{
T 100 850 5 8 1 1 0 0 1
pinnumber=4
T 400 750 3 8 1 1 0 0 1
pinlabel=VPSI
}
P 2700 900 2400 900 1 0 0
{
T 2500 950 5 8 1 1 0 0 1
pinnumber=9
T 2350 900 3 8 1 1 0 6 1
pinlabel=VPSO
}
P 1800 0 1800 300 1 0 0
{
T 1700 200 5 8 1 1 180 6 1
pinnumber=8
T 1850 400 3 8 1 1 90 0 1
pinlabel=CMOP
}
P 1200 0 1200 300 1 0 0
{
T 1075 200 5 8 1 1 180 6 1
pinnumber=6
T 1250 400 3 8 1 1 90 0 1
pinlabel=VOUT
}
P 2700 1200 2400 1200 1 0 0
{
T 2500 1250 5 8 1 1 0 0 1
pinnumber=10
T 2350 1200 3 8 1 1 0 6 1
pinlabel=TADJ
}
P 2700 1500 2400 1500 1 0 0
{
T 2500 1550 5 8 1 1 0 0 1
pinnumber=11
T 2350 1450 3 8 1 1 0 6 1
pinlabel=CMIP
}
P 2700 1800 2400 1800 1 0 0
{
T 2500 1850 5 8 1 1 0 0 1
pinnumber=12
T 2350 1750 3 8 1 1 0 6 1
pinlabel=CMIP
}
P 1800 2600 1800 2300 1 0 0
{
T 1750 2400 5 8 1 1 90 0 1
pinnumber=13
T 1800 2250 3 8 1 1 90 6 1
pinlabel=TEMP
}
B 300 300 2100 2000 3 0 0 0 -1 -1 0 -1 -1 -1 -1 -1
T 950 1250 8 10 1 1 0 0 1
value=AD8318
P 2800 0 2800 300 1 0 0
{
T 2600 150 5 8 1 1 180 6 1
pinnumber=17
T 2750 500 3 8 1 1 180 0 1
pinlabel=EP
}
B 2400 300 400 300 3 0 0 0 -1 -1 0 -1 -1 -1 -1 -1
P 900 0 900 300 1 0 0
{
T 775 200 5 8 1 1 180 6 1
pinnumber=5
T 950 400 3 8 1 1 90 0 1
pinlabel=CLPF
}
