v 20110115 2
P 0 3700 300 3700 1 0 0
{
T 100 3750 5 10 1 1 0 0 1
pinnumber=1
T 500 3650 5 10 1 1 0 0 1
pinlabel=CLK
}
P 0 3400 300 3400 1 0 0
{
T 100 3450 5 10 1 1 0 0 1
pinnumber=2
T 500 3350 5 10 1 1 0 0 1
pinlabel=DATA
}
P 0 3100 300 3100 1 0 0
{
T 100 3150 5 10 1 1 0 0 1
pinnumber=3
T 500 3050 5 10 1 1 0 0 1
pinlabel=LE
}
P 0 2800 300 2800 1 0 0
{
T 100 2850 5 10 1 1 0 0 1
pinnumber=4
T 500 2750 5 10 1 1 0 0 1
pinlabel=CE
}
P 0 2500 300 2500 1 0 0
{
T 100 2550 5 10 1 1 0 0 1
pinnumber=5
T 500 2450 5 10 1 1 0 0 1
pinlabel=SW
}
P 0 2200 300 2200 1 0 0
{
T 100 2250 5 10 1 1 0 0 1
pinnumber=6
T 500 2150 5 10 1 1 0 0 1
pinlabel=VP
}
P 0 1900 300 1900 1 0 0
{
T 100 1950 5 10 1 1 0 0 1
pinnumber=7
T 500 1850 5 10 1 1 0 0 1
pinlabel=CPOUT
}
P 0 1600 300 1600 1 0 0
{
T 100 1650 5 10 1 1 0 0 1
pinnumber=8
T 500 1550 5 10 1 1 0 0 1
pinlabel=CPGND
}
P 1600 0 1600 300 1 0 0
{
T 1550 250 5 10 1 1 90 6 1
pinnumber=9
T 1650 450 5 10 1 1 90 0 1
pinlabel=AGND
}
P 1900 0 1900 300 1 0 0
{
T 1850 250 5 10 1 1 90 6 1
pinnumber=10
T 1950 450 5 10 1 1 90 0 1
pinlabel=AVDD
}
P 2200 0 2200 300 1 0 0
{
T 2150 250 5 10 1 1 90 6 1
pinnumber=11
T 2250 450 5 10 1 1 90 0 1
pinlabel=AGNDVCO
}
P 2500 0 2500 300 1 0 0
{
T 2450 250 5 10 1 1 90 6 1
pinnumber=12
T 2550 450 5 10 1 1 90 0 1
pinlabel=RFOUTA+
}
P 2800 0 2800 300 1 0 0
{
T 2750 250 5 10 1 1 90 6 1
pinnumber=13
T 2850 450 5 10 1 1 90 0 1
pinlabel=RFOUTA-
}
P 3100 0 3100 300 1 0 0
{
T 3050 250 5 10 1 1 90 6 1
pinnumber=14
T 3150 450 5 10 1 1 90 0 1
pinlabel=RFOUTB+
}
P 3400 0 3400 300 1 0 0
{
T 3350 250 5 10 1 1 90 6 1
pinnumber=15
T 3450 450 5 10 1 1 90 0 1
pinlabel=RFOUTB-
}
P 3700 0 3700 300 1 0 0
{
T 3650 250 5 10 1 1 90 6 1
pinnumber=16
T 3750 450 5 10 1 1 90 0 1
pinlabel=VVCO
}
P 5300 1600 5000 1600 1 0 0
{
T 5250 1650 5 10 1 1 0 6 1
pinnumber=17
T 4800 1550 5 10 1 1 0 6 1
pinlabel=VVCO
}
P 5300 1900 5000 1900 1 0 0
{
T 5250 1950 5 10 1 1 0 6 1
pinnumber=18
T 4800 1850 5 10 1 1 0 6 1
pinlabel=AGNDVCO
}
P 5300 2200 5000 2200 1 0 0
{
T 5250 2250 5 10 1 1 0 6 1
pinnumber=19
T 4800 2150 5 10 1 1 0 6 1
pinlabel=TEMP
}
P 5300 2500 5000 2500 1 0 0
{
T 5250 2550 5 10 1 1 0 6 1
pinnumber=20
T 4800 2450 5 10 1 1 0 6 1
pinlabel=VTUNE
}
P 5300 2800 5000 2800 1 0 0
{
T 5250 2850 5 10 1 1 0 6 1
pinnumber=21
T 4800 2750 5 10 1 1 0 6 1
pinlabel=AGNDVCO
}
P 5300 3100 5000 3100 1 0 0
{
T 5250 3150 5 10 1 1 0 6 1
pinnumber=22
T 4800 3050 5 10 1 1 0 6 1
pinlabel=RSET
}
P 5300 3400 5000 3400 1 0 0
{
T 5250 3450 5 10 1 1 0 6 1
pinnumber=23
T 4800 3350 5 10 1 1 0 6 1
pinlabel=VCOM
}
P 5300 3700 5000 3700 1 0 0
{
T 5250 3750 5 10 1 1 0 6 1
pinnumber=24
T 4800 3650 5 10 1 1 0 6 1
pinlabel=VREF
}
P 3700 5300 3700 5000 1 0 0
{
T 3650 5050 5 10 1 1 90 0 1
pinnumber=25
T 3750 4850 5 10 1 1 90 6 1
pinlabel=LD
}
P 3400 5300 3400 5000 1 0 0
{
T 3350 5050 5 10 1 1 90 0 1
pinnumber=26
T 3450 4850 5 10 1 1 90 6 1
pinlabel=PDBRF
}
P 3100 5300 3100 5000 1 0 0
{
T 3050 5050 5 10 1 1 90 0 1
pinnumber=27
T 3150 4850 5 10 1 1 90 6 1
pinlabel=DGND
}
P 2800 5300 2800 5000 1 0 0
{
T 2750 5050 5 10 1 1 90 0 1
pinnumber=28
T 2850 4850 5 10 1 1 90 6 1
pinlabel=DVDD
}
T 400 4900 8 10 1 1 0 0 1
refdes=U?
T 4300 4900 8 10 1 1 0 0 1
value=ADF4351
P 2500 5300 2500 5000 1 0 0
{
T 2450 5050 5 10 1 1 90 0 1
pinnumber=29
T 2550 4850 5 10 1 1 90 6 1
pinlabel=REFIN
}
P 2200 5300 2200 5000 1 0 0
{
T 2150 5050 5 10 1 1 90 0 1
pinnumber=30
T 2250 4850 5 10 1 1 90 6 1
pinlabel=MUXOUT
}
P 1900 5300 1900 5000 1 0 0
{
T 1850 5050 5 10 1 1 90 0 1
pinnumber=31
T 1950 4850 5 10 1 1 90 6 1
pinlabel=SDGND
}
P 1600 5300 1600 5000 1 0 0
{
T 1550 5050 5 10 1 1 90 0 1
pinnumber=32
T 1650 4850 5 10 1 1 90 6 1
pinlabel=SDVDD
}
B 400 3800 100 100 3 0 0 0 -1 -1 0 -1 -1 -1 -1 -1
L 300 4000 1300 5000 3 0 0 0 -1 -1
L 1300 300 300 1300 3 0 0 0 -1 -1
L 1300 5000 4000 5000 3 0 0 0 -1 -1
L 5000 4000 5000 1300 3 0 0 0 -1 -1
L 4000 300 1300 300 3 0 0 0 -1 -1
L 300 1300 300 4000 3 0 0 0 -1 -1
L 4200 500 4800 500 3 0 0 0 -1 -1
L 4800 500 4800 1100 3 0 0 0 -1 -1
L 5000 4000 4000 5000 3 0 0 0 -1 -1
L 4000 300 5000 1300 3 0 0 0 -1 -1
P 4600 200 4600 500 1 0 0
{
T 4550 450 5 10 1 1 90 6 1
pinnumber=33
T 4450 600 5 10 1 1 0 0 1
pinlabel=EP
}
