v 20040111 1
P 300 2300 0 2300 1 0 1
{
T 100 2350 5 10 1 1 0 0 1
pinnumber=1
T 300 2300 5 10 0 1 0 0 1
pinseq=1
T 400 2250 5 10 1 1 0 0 1
pinlabel=VCC
}
T 1900 2600 8 10 1 1 0 6 1
refdes=U?
B 300 0 1600 2500 3 0 0 0 -1 -1 0 -1 -1 -1 -1 -1
A 1100 2500 129 180 180 3 0 0 0 -1 -1
P 300 2000 0 2000 1 0 1
{
T 100 2050 5 10 1 1 0 0 1
pinnumber=2
T 300 2000 5 10 0 1 0 0 1
pinseq=2
T 400 1950 5 10 1 1 0 0 1
pinlabel=CH0
}
P 300 1700 0 1700 1 0 1
{
T 100 1750 5 10 1 1 0 0 1
pinnumber=3
T 300 1700 5 10 0 1 0 0 1
pinseq=3
T 400 1650 5 10 1 1 0 0 1
pinlabel=CH1
}
P 300 1400 0 1400 1 0 1
{
T 100 1450 5 10 1 1 0 0 1
pinnumber=4
T 300 1400 5 10 0 1 0 0 1
pinseq=4
T 400 1350 5 10 1 1 0 0 1
pinlabel=CH2
}
P 300 1100 0 1100 1 0 1
{
T 100 1150 5 10 1 1 0 0 1
pinnumber=5
T 300 1100 5 10 0 1 0 0 1
pinseq=5
T 400 1050 5 10 1 1 0 0 1
pinlabel=CH3
}
P 300 800 0 800 1 0 1
{
T 100 850 5 10 1 1 0 0 1
pinnumber=6
T 300 800 5 10 0 1 0 0 1
pinseq=6
T 400 750 5 10 1 1 0 0 1
pinlabel=COM
}
P 300 500 0 500 1 0 1
{
T 100 550 5 10 1 1 0 0 1
pinnumber=7
T 300 500 5 10 0 1 0 0 1
pinseq=7
T 400 450 5 10 1 1 0 0 1
pinlabel=-SHDN
}
P 300 200 0 200 1 0 1
{
T 100 250 5 10 1 1 0 0 1
pinnumber=8
T 300 200 5 10 0 1 0 0 1
pinseq=8
T 400 150 5 10 1 1 0 0 1
pinlabel=VREF
}
T 300 2600 8 10 1 1 0 0 1
value=ADS7841
P 1900 2300 2200 2300 1 0 1
{
T 2150 2350 5 10 1 1 0 6 1
pinnumber=16
T 1900 2300 5 10 0 1 0 6 1
pinseq=16
T 1800 2250 5 10 1 1 0 6 1
pinlabel=DCLK
}
P 1900 2000 2200 2000 1 0 1
{
T 2150 2050 5 10 1 1 0 6 1
pinnumber=15
T 1900 2000 5 10 0 1 0 6 1
pinseq=15
T 1800 1950 5 10 1 1 0 6 1
pinlabel=-CS
}
P 1900 1700 2200 1700 1 0 1
{
T 2150 1750 5 10 1 1 0 6 1
pinnumber=14
T 1900 1700 5 10 0 1 0 6 1
pinseq=14
T 1800 1650 5 10 1 1 0 6 1
pinlabel=DIN
}
P 1900 1400 2200 1400 1 0 1
{
T 2150 1450 5 10 1 1 0 6 1
pinnumber=13
T 1900 1400 5 10 0 1 0 6 1
pinseq=13
T 1800 1350 5 10 1 1 0 6 1
pinlabel=BUSY
}
P 1900 1100 2200 1100 1 0 1
{
T 2150 1150 5 10 1 1 0 6 1
pinnumber=12
T 1900 1100 5 10 0 1 0 6 1
pinseq=12
T 1800 1050 5 10 1 1 0 6 1
pinlabel=DOUT
}
P 1900 800 2200 800 1 0 1
{
T 2150 850 5 10 1 1 0 6 1
pinnumber=11
T 1900 800 5 10 0 1 0 6 1
pinseq=11
T 1800 750 5 10 1 1 0 6 1
pinlabel=MODE
}
P 1900 500 2200 500 1 0 1
{
T 2150 550 5 10 1 1 0 6 1
pinnumber=10
T 1900 500 5 10 0 1 0 6 1
pinseq=10
T 1800 450 5 10 1 1 0 6 1
pinlabel=GND
}
P 1900 200 2200 200 1 0 1
{
T 2150 250 5 10 1 1 0 6 1
pinnumber=9
T 1900 200 5 10 0 1 0 6 1
pinseq=9
T 1800 150 5 10 1 1 0 6 1
pinlabel=VCC
}
