v 20110115 2
P 0 5900 300 5900 1 0 0
{
T 50 5950 5 10 1 1 0 0 1
pinnumber=1
T 500 5850 5 10 1 1 0 0 1
pinlabel=PB0/XCK0/T0
}
P 0 5600 300 5600 1 0 0
{
T 50 5650 5 10 1 1 0 0 1
pinnumber=2
T 500 5550 5 10 1 1 0 0 1
pinlabel=PB1/CLKO/T1
}
P 0 5300 300 5300 1 0 0
{
T 50 5350 5 10 1 1 0 0 1
pinnumber=3
T 500 5250 5 10 1 1 0 0 1
pinlabel=PB2/INT2/AIN0
}
P 0 5000 300 5000 1 0 0
{
T 50 5050 5 10 1 1 0 0 1
pinnumber=4
T 500 4950 5 10 1 1 0 0 1
pinlabel=PB3/OC0A/AIN1
}
P 0 4700 300 4700 1 0 0
{
T 50 4750 5 10 1 1 0 0 1
pinnumber=5
T 500 4650 5 10 1 1 0 0 1
pinlabel=PB4/OC0B/SS
}
P 0 4400 300 4400 1 0 0
{
T 50 4450 5 10 1 1 0 0 1
pinnumber=6
T 500 4350 5 10 1 1 0 0 1
pinlabel=PB5/ICP3/MOSI
}
P 0 4100 300 4100 1 0 0
{
T 50 4150 5 10 1 1 0 0 1
pinnumber=7
T 500 4050 5 10 1 1 0 0 1
pinlabel=PB6/OC3A/MISO
}
P 0 3800 300 3800 1 0 0
{
T 50 3850 5 10 1 1 0 0 1
pinnumber=8
T 500 3750 5 10 1 1 0 0 1
pinlabel=PB7/OC3B/SCK
}
P 0 3500 300 3500 1 0 0
{
T 50 3550 5 10 1 1 0 0 1
pinnumber=9
T 500 3450 5 10 1 1 0 0 1
pinlabel=\_RESET
}
P 0 3200 300 3200 1 0 0
{
T 50 3250 5 10 1 1 0 0 1
pinnumber=10
T 500 3150 5 10 1 1 0 0 1
pinlabel=VCC
}
P 0 2900 300 2900 1 0 0
{
T 50 2950 5 10 1 1 0 0 1
pinnumber=11
T 500 2850 5 10 1 1 0 0 1
pinlabel=GND
}
P 0 2600 300 2600 1 0 0
{
T 50 2650 5 10 1 1 0 0 1
pinnumber=12
T 500 2550 5 10 1 1 0 0 1
pinlabel=XTAL2
}
P 0 2300 300 2300 1 0 0
{
T 50 2350 5 10 1 1 0 0 1
pinnumber=13
T 500 2250 5 10 1 1 0 0 1
pinlabel=XTAL1
}
P 0 2000 300 2000 1 0 0
{
T 50 2050 5 10 1 1 0 0 1
pinnumber=14
T 500 1950 5 10 1 1 0 0 1
pinlabel=PD0/RXD0/T3
}
P 4300 2000 4000 2000 1 0 0
{
T 4250 2050 5 10 1 1 0 6 1
pinnumber=27
T 3800 1950 5 10 1 1 0 6 1
pinlabel=PC5/TDI
}
P 4300 2300 4000 2300 1 0 0
{
T 4250 2350 5 10 1 1 0 6 1
pinnumber=28
T 3800 2250 5 10 1 1 0 6 1
pinlabel=PC6/TOSC1
}
P 4300 2600 4000 2600 1 0 0
{
T 4250 2650 5 10 1 1 0 6 1
pinnumber=29
T 3800 2550 5 10 1 1 0 6 1
pinlabel=PC7/TOSC2
}
P 4300 2900 4000 2900 1 0 0
{
T 4250 2950 5 10 1 1 0 6 1
pinnumber=30
T 3800 2850 5 10 1 1 0 6 1
pinlabel=AVCC
}
P 4300 3200 4000 3200 1 0 0
{
T 4250 3250 5 10 1 1 0 6 1
pinnumber=31
T 3800 3150 5 10 1 1 0 6 1
pinlabel=GND
}
P 4300 3500 4000 3500 1 0 0
{
T 4250 3550 5 10 1 1 0 6 1
pinnumber=32
T 3800 3450 5 10 1 1 0 6 1
pinlabel=AREF
}
P 4300 3800 4000 3800 1 0 0
{
T 4250 3850 5 10 1 1 0 6 1
pinnumber=33
T 3800 3750 5 10 1 1 0 6 1
pinlabel=PA7/ADC7
}
P 4300 4100 4000 4100 1 0 0
{
T 4250 4150 5 10 1 1 0 6 1
pinnumber=34
T 3800 4050 5 10 1 1 0 6 1
pinlabel=PA6/ADC6
}
P 4300 4400 4000 4400 1 0 0
{
T 4250 4450 5 10 1 1 0 6 1
pinnumber=35
T 3800 4350 5 10 1 1 0 6 1
pinlabel=PA5/ADC5
}
P 4300 4700 4000 4700 1 0 0
{
T 4250 4750 5 10 1 1 0 6 1
pinnumber=36
T 3800 4650 5 10 1 1 0 6 1
pinlabel=PA4/ADC4
}
P 4300 5000 4000 5000 1 0 0
{
T 4250 5050 5 10 1 1 0 6 1
pinnumber=37
T 3800 4950 5 10 1 1 0 6 1
pinlabel=PA3/ADC3
}
P 4300 5300 4000 5300 1 0 0
{
T 4250 5350 5 10 1 1 0 6 1
pinnumber=38
T 3800 5250 5 10 1 1 0 6 1
pinlabel=PA2/ADC2
}
P 4300 5600 4000 5600 1 0 0
{
T 4250 5650 5 10 1 1 0 6 1
pinnumber=39
T 3800 5550 5 10 1 1 0 6 1
pinlabel=PA1/ADC1
}
P 4300 5900 4000 5900 1 0 0
{
T 4250 5950 5 10 1 1 0 6 1
pinnumber=40
T 3800 5850 5 10 1 1 0 6 1
pinlabel=PA0/ADC0
}
B 300 0 3700 6100 3 0 0 0 -1 -1 0 -1 -1 -1 -1 -1
T 3600 6200 8 10 1 1 0 0 1
refdes=U?
T 400 6200 8 10 1 1 0 0 1
value=ATMega644_DIP
A 2100 6100 200 180 180 3 0 0 0 -1 -1
P 0 1700 300 1700 1 0 0
{
T 50 1750 5 10 1 1 0 0 1
pinnumber=15
T 500 1650 5 10 1 1 0 0 1
pinlabel=PD1/TXD0
}
P 0 1400 300 1400 1 0 0
{
T 50 1450 5 10 1 1 0 0 1
pinnumber=16
T 500 1350 5 10 1 1 0 0 1
pinlabel=PD2/RXD1/INT0
}
P 0 1100 300 1100 1 0 0
{
T 50 1150 5 10 1 1 0 0 1
pinnumber=17
T 500 1050 5 10 1 1 0 0 1
pinlabel=PD3/TXD1/INT1
}
P 0 800 300 800 1 0 0
{
T 50 850 5 10 1 1 0 0 1
pinnumber=18
T 500 750 5 10 1 1 0 0 1
pinlabel=PD4/XCK1/OC1B
}
P 0 500 300 500 1 0 0
{
T 50 550 5 10 1 1 0 0 1
pinnumber=19
T 500 450 5 10 1 1 0 0 1
pinlabel=PD5/OC1A
}
P 0 200 300 200 1 0 0
{
T 50 250 5 10 1 1 0 0 1
pinnumber=20
T 500 150 5 10 1 1 0 0 1
pinlabel=PD6/OC2B/ICP
}
P 4300 200 4000 200 1 0 0
{
T 4250 250 5 10 1 1 0 6 1
pinnumber=21
T 3800 150 5 10 1 1 0 6 1
pinlabel=PD7/OC2A
}
P 4300 500 4000 500 1 0 0
{
T 4250 550 5 10 1 1 0 6 1
pinnumber=22
T 3800 450 5 10 1 1 0 6 1
pinlabel=PC0/SCL
}
P 4300 800 4000 800 1 0 0
{
T 4250 850 5 10 1 1 0 6 1
pinnumber=23
T 3800 750 5 10 1 1 0 6 1
pinlabel=PC1/SDA
}
P 4300 1100 4000 1100 1 0 0
{
T 4250 1150 5 10 1 1 0 6 1
pinnumber=24
T 3800 1050 5 10 1 1 0 6 1
pinlabel=PC2/TCK
}
P 4300 1400 4000 1400 1 0 0
{
T 4250 1450 5 10 1 1 0 6 1
pinnumber=25
T 3800 1350 5 10 1 1 0 6 1
pinlabel=PC3/TMS
}
P 4300 1700 4000 1700 1 0 0
{
T 4250 1750 5 10 1 1 0 6 1
pinnumber=26
T 3800 1650 5 10 1 1 0 6 1
pinlabel=PC4/TDO
}
