v 20080127 1
T -500 100 5 10 0 0 0 0 1
device=CONNECTORSD_MMC
T 1800 0 8 10 1 1 0 0 1
refdes=CONN?
P 100 1600 100 1900 1 0 1
{
T 80 1800 5 8 1 1 180 0 1
pinnumber=1
T 150 875 5 6 1 1 90 0 1
pinlabel=DAT2
}
P 400 1600 400 1900 1 0 1
{
T 380 1800 5 8 1 1 180 0 1
pinnumber=2
T 450 675 5 6 1 1 90 0 1
pinlabel=CD/DAT3
}
P 700 1600 700 1900 1 0 1
{
T 680 1800 5 8 1 1 180 0 1
pinnumber=3
T 750 925 5 6 1 1 90 0 1
pinlabel=CMD
}
P 1000 1600 1000 1900 1 0 1
{
T 980 1800 5 8 1 1 180 0 1
pinnumber=4
T 1050 950 5 6 1 1 90 0 1
pinlabel=VDD
}
P 1300 1600 1300 1900 1 0 1
{
T 1280 1800 5 8 1 1 180 0 1
pinnumber=5
T 1350 950 5 6 1 1 90 0 1
pinlabel=CLK
}
P 1600 1600 1600 1900 1 0 1
{
T 1580 1800 5 8 1 1 180 0 1
pinnumber=6
T 1650 950 5 6 1 1 90 0 1
pinlabel=VSS
}
P 1900 1600 1900 1900 1 0 1
{
T 1880 1800 5 8 1 1 180 0 1
pinnumber=7
T 1950 875 5 6 1 1 90 0 1
pinlabel=DAT0
}
P 2200 1600 2200 1900 1 0 1
{
T 2180 1800 5 8 1 1 180 0 1
pinnumber=8
T 2250 900 5 6 1 1 90 0 1
pinlabel=DAT1
}
L 2500 1500 0 1500 3 0 0 0 -1 -1
L 0 1500 0 200 3 0 0 0 -1 -1
L 0 200 2500 200 3 0 0 0 -1 -1
L 2500 200 2500 1500 3 0 0 0 -1 -1
L 100 1600 100 1400 3 0 0 0 -1 -1
L 400 1600 400 1400 3 0 0 0 -1 -1
L 700 1600 700 1400 3 0 0 0 -1 -1
L 1000 1600 1000 1400 3 0 0 0 -1 -1
L 1300 1600 1300 1400 3 0 0 0 -1 -1
L 1600 1600 1600 1400 3 0 0 0 -1 -1
L 1900 1600 1900 1400 3 0 0 0 -1 -1
L 50 1400 150 1400 3 0 0 0 -1 -1
L 150 1400 150 1200 3 0 0 0 -1 -1
L 150 1200 50 1200 3 0 0 0 -1 -1
L 50 1200 50 1400 3 0 0 0 -1 -1
L 350 1400 450 1400 3 0 0 0 -1 -1
L 450 1400 450 1200 3 0 0 0 -1 -1
L 450 1200 350 1200 3 0 0 0 -1 -1
L 350 1200 350 1400 3 0 0 0 -1 -1
L 650 1400 750 1400 3 0 0 0 -1 -1
L 750 1400 750 1200 3 0 0 0 -1 -1
L 750 1200 650 1200 3 0 0 0 -1 -1
L 650 1200 650 1400 3 0 0 0 -1 -1
L 950 1400 1050 1400 3 0 0 0 -1 -1
L 1050 1400 1050 1200 3 0 0 0 -1 -1
L 1050 1200 950 1200 3 0 0 0 -1 -1
L 950 1200 950 1400 3 0 0 0 -1 -1
L 1250 1400 1350 1400 3 0 0 0 -1 -1
L 1350 1400 1350 1200 3 0 0 0 -1 -1
L 1350 1200 1250 1200 3 0 0 0 -1 -1
L 1250 1200 1250 1400 3 0 0 0 -1 -1
L 1550 1400 1650 1400 3 0 0 0 -1 -1
L 1650 1400 1650 1200 3 0 0 0 -1 -1
L 1650 1200 1550 1200 3 0 0 0 -1 -1
L 1550 1200 1550 1400 3 0 0 0 -1 -1
T 100 300 9 10 1 0 0 0 1
microSD
P 2600 1000 2900 1000 1 0 1
{
T 2695 1045 5 8 1 1 0 0 1
pinnumber=10
T 2375 975 5 6 1 1 0 0 1
pinlabel=A
}
P 2600 700 2900 700 1 0 1
{
T 2695 745 5 8 1 1 0 0 1
pinnumber=11
T 2375 650 5 6 1 1 0 0 1
pinlabel=B
}
L 2600 1000 2500 1000 3 0 0 0 -1 -1
L 2600 700 2500 700 3 0 0 0 -1 -1
L 2200 1600 2200 1400 3 0 0 0 -1 -1
L 1850 1400 1950 1400 3 0 0 0 -1 -1
L 1950 1400 1950 1200 3 0 0 0 -1 -1
L 1950 1200 1850 1200 3 0 0 0 -1 -1
L 1850 1200 1850 1400 3 0 0 0 -1 -1
L 2150 1400 2250 1400 3 0 0 0 -1 -1
L 2250 1400 2250 1200 3 0 0 0 -1 -1
L 2250 1200 2150 1200 3 0 0 0 -1 -1
L 2150 1200 2150 1400 3 0 0 0 -1 -1
