v 20130925 2
L 300 400 300 0 3 0 0 0 -1 -1
L 300 400 600 200 3 0 0 0 -1 -1
L 600 200 300 0 3 0 0 0 -1 -1
L 600 400 600 0 3 0 0 0 -1 -1
P 900 200 700 200 1 0 0
{
T 795 245 5 8 1 1 0 0 1
pinnumber=3
}
P 0 400 200 400 1 0 0
{
T 105 445 5 8 1 1 0 6 1
pinnumber=1
}
L 700 200 600 200 3 0 0 0 -1 -1
L 300 200 200 200 3 0 0 0 -1 -1
T 300 500 8 10 1 1 0 0 1
refdes=D?
P 0 0 200 0 1 0 0
{
T 105 45 5 8 1 1 0 6 1
pinnumber=2
}
L 200 400 200 0 3 0 0 0 -1 -1
