v 20030901
L 300 400 300 0 3 0 0 0 -1 -1
L 300 400 600 200 3 0 0 0 -1 -1
L 600 200 300 0 3 0 0 0 -1 -1
L 600 400 600 0 3 0 0 0 -1 -1
L 700 200 600 200 3 0 0 0 -1 -1
L 300 200 200 200 3 0 0 0 -1 -1
T 200 700 8 10 1 1 0 0
refdes=D?
L 1500 400 1500 0 3 0 0 0 -1 -1
L 1500 400 1200 200 3 0 0 0 -1 -1
L 1200 200 1500 0 3 0 0 0 -1 -1
L 1200 400 1200 0 3 0 0 0 -1 -1
L 1600 200 1500 200 3 0 0 0 -1 -1
L 1200 200 700 200 3 0 0 0 -1 -1
L 900 700 900 200 3 0 0 0 -1 -1
P 1800 200 1600 200 1 0 0
{
T 1700 250 5 10 1 1 0 0
pinnumber=1
T 1800 200 5 10 0 1 0 0
pinseq=1
}
P 900 900 900 700 1 0 0
{
T 950 750 5 10 1 1 0 0
pinnumber=3
T 900 900 5 10 0 1 0 0
pinseq=3
}
P 0 200 200 200 1 0 0
{
T 50 250 5 10 1 1 0 0
pinnumber=2
T 0 200 5 10 0 1 0 0
pinseq=2
}
