v 20050313 1
B 300 300 6200 1400 3 0 0 0 -1 -1 0 -1 -1 -1 -1 -1
P 600 0 600 300 1 0 0
{
T 600 100 5 10 1 1 90 0 1
pinnumber=1
T 600 0 5 10 0 1 0 0 1
pinseq=1
T 600 400 5 10 1 1 90 0 1
pinlabel=NC
}
P 900 0 900 300 1 0 0
{
T 900 100 5 10 1 1 90 0 1
pinnumber=2
T 900 0 5 10 0 1 0 0 1
pinseq=2
T 900 400 5 10 1 1 90 0 1
pinlabel=GND
}
P 1200 0 1200 300 1 0 0
{
T 1200 100 5 10 1 1 90 0 1
pinnumber=3
T 1200 0 5 10 0 1 0 0 1
pinseq=3
T 1200 400 5 10 1 1 90 0 1
pinlabel=GND
}
P 1500 0 1500 300 1 0 0
{
T 1500 100 5 10 1 1 90 0 1
pinnumber=4
T 1500 0 5 10 0 1 0 0 1
pinseq=4
T 1500 400 5 10 1 1 90 0 1
pinlabel=GND
}
P 1800 0 1800 300 1 0 0
{
T 1800 100 5 10 1 1 90 0 1
pinnumber=5
T 1800 0 5 10 0 1 0 0 1
pinseq=5
T 1800 400 5 10 1 1 90 0 1
pinlabel=CS
}
P 2100 0 2100 300 1 0 0
{
T 2100 100 5 10 1 1 90 0 1
pinnumber=6
T 2100 0 5 10 0 1 0 0 1
pinseq=6
T 2100 400 5 10 1 1 90 0 1
pinlabel=RS
}
P 2400 0 2400 300 1 0 0
{
T 2400 100 5 10 1 1 90 0 1
pinnumber=7
T 2400 0 5 10 0 1 0 0 1
pinseq=7
T 2400 400 5 10 1 1 90 0 1
pinlabel=WR
}
P 2700 0 2700 300 1 0 0
{
T 2700 100 5 10 1 1 90 0 1
pinnumber=8
T 2700 0 5 10 0 1 0 0 1
pinseq=8
T 2700 400 5 10 1 1 90 0 1
pinlabel=RD
}
P 3000 0 3000 300 1 0 0
{
T 3000 100 5 10 1 1 90 0 1
pinnumber=9
T 3000 0 5 10 0 1 0 0 1
pinseq=9
T 3000 400 5 10 1 1 90 0 1
pinlabel=DB0
}
P 3300 0 3300 300 1 0 0
{
T 3300 100 5 10 1 1 90 0 1
pinnumber=10
T 3300 0 5 10 0 1 0 0 1
pinseq=10
T 3300 400 5 10 1 1 90 0 1
pinlabel=DB1
}
P 3600 0 3600 300 1 0 0
{
T 3600 100 5 10 1 1 90 0 1
pinnumber=11
T 3600 0 5 10 0 1 0 0 1
pinseq=11
T 3600 400 5 10 1 1 90 0 1
pinlabel=DB2
}
P 3900 0 3900 300 1 0 0
{
T 3900 100 5 10 1 1 90 0 1
pinnumber=12
T 3900 0 5 10 0 1 0 0 1
pinseq=12
T 3900 400 5 10 1 1 90 0 1
pinlabel=DB3
}
P 4200 0 4200 300 1 0 0
{
T 4200 100 5 10 1 1 90 0 1
pinnumber=13
T 4200 0 5 10 0 1 0 0 1
pinseq=13
T 4200 400 5 10 1 1 90 0 1
pinlabel=DB4
}
P 4500 0 4500 300 1 0 0
{
T 4500 100 5 10 1 1 90 0 1
pinnumber=14
T 4500 0 5 10 0 1 0 0 1
pinseq=14
T 4500 400 5 10 1 1 90 0 1
pinlabel=DB5
}
P 4800 0 4800 300 1 0 0
{
T 4800 100 5 10 1 1 90 0 1
pinnumber=15
T 4800 0 5 10 0 1 0 0 1
pinseq=15
T 4800 400 5 10 1 1 90 0 1
pinlabel=DB6
}
P 5100 0 5100 300 1 0 0
{
T 5100 100 5 10 1 1 90 0 1
pinnumber=16
T 5100 0 5 10 0 1 0 0 1
pinseq=16
T 5100 400 5 10 1 1 90 0 1
pinlabel=DB7
}
L 300 1100 6500 1100 3 0 0 0 -1 -1
T 2400 1300 9 10 1 0 0 0 1
DISPLAY    HD667B89
T 6000 1800 8 10 1 1 0 0 1
refdes=U?
T 400 1800 8 10 1 1 0 0 1
value=TM0276
T 1400 800 8 10 0 1 0 0 1
footprint=SIL 16
P 5400 0 5400 300 1 0 0
{
T 5400 100 5 10 1 1 90 0 1
pinnumber=17
T 5400 0 5 10 0 1 0 0 1
pinseq=17
T 5400 400 5 10 1 1 90 0 1
pinlabel=RESET
}
P 5700 0 5700 300 1 0 0
{
T 5700 100 5 10 1 1 90 0 1
pinnumber=18
T 5700 0 5 10 0 1 0 0 1
pinseq=18
T 5700 400 5 10 1 1 90 0 1
pinlabel=VCC
}
P 6000 0 6000 300 1 0 0
{
T 6000 100 5 10 1 1 90 0 1
pinnumber=19
T 6000 0 5 10 0 1 0 0 1
pinseq=19
T 6000 400 5 10 1 1 90 0 1
pinlabel=VCC
}
P 6300 0 6300 300 1 0 0
{
T 6300 100 5 10 1 1 90 0 1
pinnumber=20
T 6300 0 5 10 0 1 0 0 1
pinseq=20
T 6300 400 5 10 1 1 90 0 1
pinlabel=NC
}
P 0 1500 300 1500 1 0 0
{
T 0 1500 5 10 1 1 0 0 1
pinnumber=B1
T 0 1500 5 10 0 1 270 0 1
pinseq=B1
T 400 1500 5 10 1 1 0 0 1
pinlabel=K
}
P 0 1200 300 1200 1 0 0
{
T 0 1200 5 10 1 1 0 0 1
pinnumber=B2
T 0 1200 5 10 0 1 270 0 1
pinseq=B2
T 400 1200 5 10 1 1 0 0 1
pinlabel=K
}
P 6800 1200 6500 1200 1 0 0
{
T 6800 1200 5 10 1 1 0 6 1
pinnumber=B3
T 6800 1200 5 10 0 1 270 2 1
pinseq=B3
T 6300 1200 5 10 1 1 0 6 1
pinlabel=A
}
P 6800 1500 6500 1500 1 0 0
{
T 6800 1500 5 10 1 1 0 6 1
pinnumber=B4
T 6800 1500 5 10 0 1 270 2 1
pinseq=B4
T 6300 1500 5 10 1 1 0 6 1
pinlabel=A
}
