v 20091004 2
P 0 5300 300 5300 1 0 0
{
T 100 5325 5 10 1 1 0 0 1
pinnumber=1
T 500 5250 5 10 1 1 0 0 1
pinlabel=G_VDDB
}
P 0 5000 300 5000 1 0 0
{
T 100 5025 5 10 1 1 0 0 1
pinnumber=2
T 500 4950 5 10 1 1 0 0 1
pinlabel=-OTW
}
P 0 4700 300 4700 1 0 0
{
T 100 4725 5 10 1 1 0 0 1
pinnumber=3
T 500 4650 5 10 1 1 0 0 1
pinlabel=-FAULT
}
P 0 4400 300 4400 1 0 0
{
T 100 4425 5 10 1 1 0 0 1
pinnumber=4
T 500 4350 5 10 1 1 0 0 1
pinlabel=PWM_A
}
P 0 4100 300 4100 1 0 0
{
T 100 4125 5 10 1 1 0 0 1
pinnumber=5
T 500 4050 5 10 1 1 0 0 1
pinlabel=-RESET_AB
}
P 0 3800 300 3800 1 0 0
{
T 100 3825 5 10 1 1 0 0 1
pinnumber=6
T 500 3750 5 10 1 1 0 0 1
pinlabel=PWM_B
}
P 0 3500 300 3500 1 0 0
{
T 100 3525 5 10 1 1 0 0 1
pinnumber=7
T 500 3450 5 10 1 1 0 0 1
pinlabel=OC_ADJ
}
P 0 3200 300 3200 1 0 0
{
T 100 3225 5 10 1 1 0 0 1
pinnumber=8
T 500 3150 5 10 1 1 0 0 1
pinlabel=GND
}
P 0 2900 300 2900 1 0 0
{
T 100 2925 5 10 1 1 0 0 1
pinnumber=9
T 500 2850 5 10 1 1 0 0 1
pinlabel=AGND
}
P 0 2600 300 2600 1 0 0
{
T 50 2625 5 10 1 1 0 0 1
pinnumber=10
T 500 2550 5 10 1 1 0 0 1
pinlabel=VREG
}
P 0 2300 300 2300 1 0 0
{
T 50 2325 5 10 1 1 0 0 1
pinnumber=11
T 500 2250 5 10 1 1 0 0 1
pinlabel=M3
}
P 0 2000 300 2000 1 0 0
{
T 50 2025 5 10 1 1 0 0 1
pinnumber=12
T 500 1950 5 10 1 1 0 0 1
pinlabel=M2
}
P 0 1700 300 1700 1 0 0
{
T 50 1725 5 10 1 1 0 0 1
pinnumber=13
T 500 1650 5 10 1 1 0 0 1
pinlabel=M1
}
P 0 1400 300 1400 1 0 0
{
T 50 1425 5 10 1 1 0 0 1
pinnumber=14
T 500 1350 5 10 1 1 0 0 1
pinlabel=PWM_C
}
P 0 1100 300 1100 1 0 0
{
T 50 1125 5 10 1 1 0 0 1
pinnumber=15
T 500 1050 5 10 1 1 0 0 1
pinlabel=-RESET_CD
}
P 0 800 300 800 1 0 0
{
T 50 825 5 10 1 1 0 0 1
pinnumber=16
T 500 750 5 10 1 1 0 0 1
pinlabel=PWM_D
}
P 0 500 300 500 1 0 0
{
T 255 520 5 10 1 1 0 6 1
pinnumber=17
T 505 445 5 10 1 1 0 0 1
pinlabel=VDD
}
P 0 200 300 200 1 0 0
{
T 255 220 5 10 1 1 0 6 1
pinnumber=18
T 505 145 5 10 1 1 0 0 1
pinlabel=GVDD_C
}
P 3000 200 2700 200 1 0 0
{
T 2975 225 5 10 1 1 0 6 1
pinnumber=19
T 2500 150 5 10 1 1 0 6 1
pinlabel=GVDD_D
}
P 3000 500 2700 500 1 0 0
{
T 2975 525 5 10 1 1 0 6 1
pinnumber=20
T 2500 450 5 10 1 1 0 6 1
pinlabel=BST_D
}
P 3000 800 2700 800 1 0 0
{
T 2975 825 5 10 1 1 0 6 1
pinnumber=21
T 2500 750 5 10 1 1 0 6 1
pinlabel=PVDD_D
}
P 3000 1100 2700 1100 1 0 0
{
T 2975 1125 5 10 1 1 0 6 1
pinnumber=22
T 2500 1050 5 10 1 1 0 6 1
pinlabel=OUT_D
}
P 3000 1400 2700 1400 1 0 0
{
T 2975 1425 5 10 1 1 0 6 1
pinnumber=23
T 2500 1350 5 10 1 1 0 6 1
pinlabel=GND_D
}
P 3000 1700 2700 1700 1 0 0
{
T 2975 1725 5 10 1 1 0 6 1
pinnumber=24
T 2500 1650 5 10 1 1 0 6 1
pinlabel=GND_C
}
P 3000 2000 2700 2000 1 0 0
{
T 2975 2025 5 10 1 1 0 6 1
pinnumber=25
T 2500 1950 5 10 1 1 0 6 1
pinlabel=OUT_C
}
P 3000 2300 2700 2300 1 0 0
{
T 2975 2325 5 10 1 1 0 6 1
pinnumber=26
T 2500 2250 5 10 1 1 0 6 1
pinlabel=PVDD_C
}
P 3000 2600 2700 2600 1 0 0
{
T 2975 2625 5 10 1 1 0 6 1
pinnumber=27
T 2500 2550 5 10 1 1 0 6 1
pinlabel=BST_C
}
P 3000 2900 2700 2900 1 0 0
{
T 2975 2925 5 10 1 1 0 6 1
pinnumber=28
T 2500 2850 5 10 1 1 0 6 1
pinlabel=BST_B
}
B 300 0 2400 5500 3 0 0 0 -1 -1 0 -1 -1 -1 -1 -1
T 2300 5600 8 10 1 1 0 0 1
refdes=U?
T 400 5600 8 10 1 1 0 0 1
value=DRV8432
A 1500 5500 200 180 180 3 0 0 0 -1 -1
P 3000 3200 2700 3200 1 0 0
{
T 2975 3225 5 10 1 1 0 6 1
pinnumber=29
T 2500 3150 5 10 1 1 0 6 1
pinlabel=PVDD_B
}
P 3000 3500 2700 3500 1 0 0
{
T 2975 3525 5 10 1 1 0 6 1
pinnumber=30
T 2500 3450 5 10 1 1 0 6 1
pinlabel=OUT_B
}
P 3000 3800 2700 3800 1 0 0
{
T 2975 3825 5 10 1 1 0 6 1
pinnumber=31
T 2500 3750 5 10 1 1 0 6 1
pinlabel=GND_B
}
P 3000 4100 2700 4100 1 0 0
{
T 2975 4125 5 10 1 1 0 6 1
pinnumber=32
T 2500 4050 5 10 1 1 0 6 1
pinlabel=GND_A
}
P 3000 4400 2700 4400 1 0 0
{
T 2975 4425 5 10 1 1 0 6 1
pinnumber=33
T 2500 4350 5 10 1 1 0 6 1
pinlabel=OUT_A
}
P 3000 4700 2700 4700 1 0 0
{
T 2975 4725 5 10 1 1 0 6 1
pinnumber=34
T 2500 4650 5 10 1 1 0 6 1
pinlabel=PVDD_A
}
P 3000 5000 2700 5000 1 0 0
{
T 2975 5025 5 10 1 1 0 6 1
pinnumber=35
T 2500 4950 5 10 1 1 0 6 1
pinlabel=BST_A
}
P 3000 5300 2700 5300 1 0 0
{
T 2975 5325 5 10 1 1 0 6 1
pinnumber=36
T 2500 5250 5 10 1 1 0 6 1
pinlabel=GVDD_A
}
