v 20050313 1
L 750 600 1000 600 3 0 0 0 -1 -1
L 750 200 1000 200 3 0 0 0 -1 -1
L 750 400 850 450 3 0 0 0 -1 -1
L 750 400 850 350 3 0 0 0 -1 -1
T 1600 1500 8 10 1 1 0 0 1
refdes=U?
L 750 675 750 525 3 0 0 0 -1 -1
L 750 475 750 325 3 0 0 0 -1 -1
L 750 275 750 125 3 0 0 0 -1 -1
L 700 600 700 200 3 0 0 0 -1 -1
L 750 400 900 400 3 0 0 0 -1 -1
L 900 400 900 200 3 0 0 0 -1 -1
L 700 200 500 200 3 0 0 0 -1 -1
L 1500 1050 1500 1300 3 0 0 0 -1 -1
L 1100 1050 1100 1300 3 0 0 0 -1 -1
L 1300 1200 1250 1100 3 0 0 0 -1 -1
L 1300 1200 1350 1100 3 0 0 0 -1 -1
L 1575 1050 1425 1050 3 0 0 0 -1 -1
L 1375 1050 1225 1050 3 0 0 0 -1 -1
L 1500 1000 1100 1000 3 0 0 0 -1 -1
L 1300 1050 1300 1200 3 0 0 0 -1 -1
L 1300 1200 1100 1200 3 0 0 0 -1 -1
L 1175 1050 1025 1050 3 0 0 0 -1 -1
L 1000 600 1100 600 3 0 0 0 -1 -1
L 1100 1000 1100 600 3 0 0 0 -1 -1
L 500 200 500 700 3 0 0 0 -1 -1
L 500 700 300 700 3 0 0 0 -1 -1
L 300 100 400 100 3 0 0 0 -1 -1
L 400 100 400 800 3 0 0 0 -1 -1
L 400 800 1100 800 3 0 0 0 -1 -1
L 300 1300 1100 1300 3 0 0 0 -1 -1
L 1900 1300 1500 1300 3 0 0 0 -1 -1
L 1900 700 1700 700 3 0 0 0 -1 -1
L 1700 700 1700 1300 3 0 0 0 -1 -1
P 2100 100 1900 100 1 0 0
{
T 2000 150 5 10 1 1 0 0 1
pinnumber=1
T 2100 100 5 10 0 1 0 0 1
pinseq=1
}
L 1900 100 1400 100 3 0 0 0 -1 -1
L 1400 100 1400 200 3 0 0 0 -1 -1
L 1400 200 1000 200 3 0 0 0 -1 -1
B 300 0 1600 1400 3 0 0 0 -1 -1 0 -1 -1 -1 -1 -1
T 300 1500 8 10 1 1 0 0 1
value=FDG6323
P 2100 700 1900 700 1 0 0
{
T 2000 750 5 10 1 1 0 0 1
pinnumber=2
T 2100 700 5 10 0 1 0 0 1
pinseq=2
}
P 2100 1300 1900 1300 1 0 0
{
T 2000 1350 5 10 1 1 0 0 1
pinnumber=3
T 2100 1300 5 10 0 1 0 0 1
pinseq=3
}
P 100 1300 300 1300 1 0 0
{
T 200 1350 5 10 1 1 0 6 1
pinnumber=4
T 100 1300 5 10 0 1 0 6 1
pinseq=4
}
P 100 700 300 700 1 0 0
{
T 200 750 5 10 1 1 0 6 1
pinnumber=5
T 100 700 5 10 0 1 0 6 1
pinseq=5
}
P 100 100 300 100 1 0 0
{
T 200 150 5 10 1 1 0 6 1
pinnumber=6
T 100 100 5 10 0 1 0 6 1
pinseq=6
}
