v 20121123 2
P 300 2300 0 2300 1 0 1
{
T 100 2350 5 10 1 1 0 0 1
pinnumber=1
T 300 2300 5 10 0 1 0 0 1
pinseq=1
T 350 2250 5 10 1 1 0 0 1
pinlabel=TXD
}
T 1850 2550 8 10 1 1 0 6 1
refdes=U?
B 300 0 1600 2500 3 0 0 0 -1 -1 0 -1 -1 -1 -1 -1
A 1100 2500 129 180 180 3 0 0 0 -1 -1
P 300 2000 0 2000 1 0 1
{
T 100 2050 5 10 1 1 0 0 1
pinnumber=2
T 300 2000 5 10 0 1 0 0 1
pinseq=2
T 350 1950 5 10 1 1 0 0 1
pinlabel=\_RTS
}
P 300 1700 0 1700 1 0 1
{
T 100 1750 5 10 1 1 0 0 1
pinnumber=3
T 300 1700 5 10 0 1 0 0 1
pinseq=3
T 350 1650 5 10 1 1 0 0 1
pinlabel=VCCIO
}
P 300 1400 0 1400 1 0 1
{
T 100 1450 5 10 1 1 0 0 1
pinnumber=4
T 300 1400 5 10 0 1 0 0 1
pinseq=4
T 350 1350 5 10 1 1 0 0 1
pinlabel=RXD
}
P 300 1100 0 1100 1 0 1
{
T 100 1150 5 10 1 1 0 0 1
pinnumber=5
T 300 1100 5 10 0 1 0 0 1
pinseq=5
T 350 1050 5 10 1 1 0 0 1
pinlabel=GND
}
P 300 800 0 800 1 0 1
{
T 100 850 5 10 1 1 0 0 1
pinnumber=6
T 300 800 5 10 0 1 0 0 1
pinseq=6
T 350 750 5 10 1 1 0 0 1
pinlabel=\_CTS
}
P 300 500 0 500 1 0 1
{
T 100 550 5 10 1 1 0 0 1
pinnumber=7
T 300 500 5 10 0 1 0 0 1
pinseq=7
T 350 450 5 10 1 1 0 0 1
pinlabel=CBUS2
}
P 300 200 0 200 1 0 1
{
T 100 250 5 10 1 1 0 0 1
pinnumber=8
T 300 200 5 10 0 1 0 0 1
pinseq=8
T 350 150 5 10 1 1 0 0 1
pinlabel=USBDP
}
T 300 2550 8 10 1 1 0 0 1
value=FT230X
P 1900 2300 2200 2300 1 0 1
{
T 2150 2350 5 10 1 1 0 6 1
pinnumber=16
T 1900 2300 5 10 0 1 0 6 1
pinseq=16
T 1850 2250 5 10 1 1 0 6 1
pinlabel=CBUS3
}
P 1900 2000 2200 2000 1 0 1
{
T 2150 2050 5 10 1 1 0 6 1
pinnumber=15
T 1900 2000 5 10 0 1 0 6 1
pinseq=15
T 1850 1950 5 10 1 1 0 6 1
pinlabel=CBUS0
}
P 1900 1700 2200 1700 1 0 1
{
T 2150 1750 5 10 1 1 0 6 1
pinnumber=14
T 1900 1700 5 10 0 1 0 6 1
pinseq=14
T 1850 1650 5 10 1 1 0 6 1
pinlabel=CBUS1
}
P 1900 1400 2200 1400 1 0 1
{
T 2150 1450 5 10 1 1 0 6 1
pinnumber=13
T 1900 1400 5 10 0 1 0 6 1
pinseq=13
T 1850 1350 5 10 1 1 0 6 1
pinlabel=GND
}
P 1900 1100 2200 1100 1 0 1
{
T 2150 1150 5 10 1 1 0 6 1
pinnumber=12
T 1900 1100 5 10 0 1 0 6 1
pinseq=12
T 1850 1050 5 10 1 1 0 6 1
pinlabel=VCC
}
P 1900 800 2200 800 1 0 1
{
T 2150 850 5 10 1 1 0 6 1
pinnumber=11
T 1900 800 5 10 0 1 0 6 1
pinseq=11
T 1850 750 5 10 1 1 0 6 1
pinlabel=\_RESET
}
P 1900 500 2200 500 1 0 1
{
T 2150 550 5 10 1 1 0 6 1
pinnumber=10
T 1900 500 5 10 0 1 0 6 1
pinseq=10
T 1800 450 5 10 1 1 0 6 1
pinlabel=3V3OUT
}
P 1900 200 2200 200 1 0 1
{
T 2150 250 5 10 1 1 0 6 1
pinnumber=9
T 1900 200 5 10 0 1 0 6 1
pinseq=9
T 1850 150 5 10 1 1 0 6 1
pinlabel=USBDM
}
