v 20110115 2
P 1100 2600 1400 2600 1 0 1
{
T 1200 2650 5 8 1 1 0 0 1
pinnumber=2
T 1200 2650 5 8 0 0 0 0 1
pinseq=2
}
P 0 2200 300 2200 1 0 0
{
T 100 2250 5 8 1 1 0 0 1
pinnumber=3
T 100 2250 5 8 0 0 0 0 1
pinseq=3
}
P 1100 2200 1400 2200 1 0 1
{
T 1200 2250 5 8 1 1 0 0 1
pinnumber=4
T 1200 2250 5 8 0 0 0 0 1
pinseq=4
}
P 0 2600 300 2600 1 0 0
{
T 150 2650 5 8 1 1 0 0 1
pinnumber=1
T 150 2650 5 8 0 0 0 0 1
pinseq=1
}
P 0 1800 300 1800 1 0 0
{
T 100 1850 5 8 1 1 0 0 1
pinnumber=5
T 100 1850 5 8 0 0 0 0 1
pinseq=5
}
L 300 2000 1100 2000 3 0 0 0 -1 -1
L 300 1600 1100 1600 3 0 0 0 -1 -1
L 300 2400 1100 2400 3 0 0 0 -1 -1
L 300 1200 1100 1200 3 0 0 0 -1 -1
T 50 -1450 5 10 0 1 0 0 1
device=HEADER16
P 1100 1000 1400 1000 1 0 1
{
T 1200 1050 5 8 1 1 0 0 1
pinnumber=10
T 1200 1050 5 8 0 0 0 0 1
pinseq=10
}
P 0 1000 300 1000 1 0 0
{
T 100 1050 5 8 1 1 0 0 1
pinnumber=9
T 100 1050 5 8 0 0 0 0 1
pinseq=9
}
P 1100 1400 1400 1400 1 0 1
{
T 1200 1450 5 8 1 1 0 0 1
pinnumber=8
T 1200 1450 5 8 0 0 0 0 1
pinseq=8
}
P 0 1400 300 1400 1 0 0
{
T 100 1450 5 8 1 1 0 0 1
pinnumber=7
T 100 1450 5 8 0 0 0 0 1
pinseq=7
}
P 1100 1800 1400 1800 1 0 1
{
T 1200 1850 5 8 1 1 0 0 1
pinnumber=6
T 1200 1850 5 8 0 0 0 0 1
pinseq=6
}
T 300 2900 8 10 1 1 0 0 1
refdes=J?
L 300 400 1100 400 3 0 0 0 -1 -1
P 1100 200 1400 200 1 0 1
{
T 1200 250 5 8 1 1 0 0 1
pinnumber=14
T 1200 250 5 8 0 0 0 0 1
pinseq=14
}
P 0 200 300 200 1 0 0
{
T 100 250 5 8 1 1 0 0 1
pinnumber=13
T 100 250 5 8 0 0 0 0 1
pinseq=13
}
P 1100 600 1400 600 1 0 1
{
T 1200 650 5 8 1 1 0 0 1
pinnumber=12
T 1200 650 5 8 0 0 0 0 1
pinseq=12
}
P 0 600 300 600 1 0 0
{
T 100 650 5 8 1 1 0 0 1
pinnumber=11
T 100 650 5 8 0 0 0 0 1
pinseq=11
}
B 300 0 800 2800 3 0 0 0 -1 -1 0 -1 -1 -1 -1 -1
L 300 800 1100 800 3 0 0 0 -1 -1
L 700 2800 700 0 3 0 0 0 -1 -1
T 0 -1000 8 10 0 0 0 0 1
pins=16
T 0 -1200 8 10 0 0 0 0 1
class=IO
