v 20071231 1
L 400 600 400 200 3 0 0 0 -1 -1
L 400 600 700 400 3 0 0 0 -1 -1
L 700 400 400 200 3 0 0 0 -1 -1
L 700 600 700 200 3 0 0 0 -1 -1
P 100 400 300 400 1 0 0
{
T 200 450 5 8 1 1 0 0 1
pinnumber=1
}
P 1000 400 800 400 1 0 0
{
T 800 450 5 8 1 1 0 0 1
pinnumber=2
}
L 800 400 700 400 3 0 0 0 -1 -1
L 400 400 300 400 3 0 0 0 -1 -1
T 900 700 8 10 1 1 0 0 1
refdes=U?
L 700 200 800 200 3 0 0 0 -1 -1
T 0 0 8 10 1 1 0 0 1
value=LM4040-20
