v 20040111 1
T 2500 2700 2 10 1 1 0 6 1
refdes=U?
T 900 1350 9 10 1 0 0 0 1
LMX2326
P 900 2800 900 2500 1 0 0
{
T 950 2600 5 8 1 1 0 0 1
pinnumber=7
T 950 2600 5 8 0 0 0 0 1
pinseq=7
T 850 2200 3 8 1 1 90 5 1
pinlabel=VCC1
}
P 1300 2800 1300 2500 1 0 0
{
T 1350 2600 5 8 1 1 0 0 1
pinnumber=15
T 1350 2600 5 8 0 0 0 0 1
pinseq=15
T 1250 2200 3 8 1 1 90 5 1
pinlabel=VCC2
}
P 1700 2800 1700 2500 1 0 0
{
T 1750 2600 5 8 1 1 0 0 1
pinnumber=16
T 1750 2600 5 8 0 0 0 0 1
pinseq=16
T 1650 2300 3 8 1 1 90 5 1
pinlabel=VP
}
P 2800 2100 2500 2100 1 0 0
{
T 2600 2150 5 8 1 1 0 0 1
pinnumber=2
T 2600 2150 5 8 0 0 0 0 1
pinseq=2
T 2450 2100 3 8 1 1 0 6 1
pinlabel=CPO
}
P 2800 1700 2500 1700 1 0 0
{
T 2600 1750 5 8 1 1 0 0 1
pinnumber=1
T 2600 1750 5 8 0 0 0 0 1
pinseq=1
T 2450 1700 3 8 1 1 0 6 1
pinlabel=FLO
}
P 2800 1300 2500 1300 1 0 0
{
T 2600 1350 5 8 1 1 0 0 1
pinnumber=14
T 2600 1350 5 8 0 0 0 0 1
pinseq=14
T 2450 1300 3 8 1 1 0 6 1
pinlabel=FO/LD
}
P 0 900 300 900 1 0 0
{
T 100 950 5 8 1 1 0 0 1
pinnumber=3
T 100 950 5 8 0 0 0 0 1
pinseq=3
T 350 900 3 8 1 1 0 0 1
pinlabel=GND
}
P 0 500 300 500 1 0 0
{
T 100 550 5 8 1 1 0 0 1
pinnumber=4
T 100 550 5 8 0 0 0 0 1
pinseq=4
T 350 500 3 8 1 1 0 0 1
pinlabel=GND
}
P 2800 900 2500 900 1 0 0
{
T 2700 950 5 8 1 1 0 6 1
pinnumber=9
T 2700 950 5 8 0 0 0 6 1
pinseq=9
T 2450 900 3 8 1 1 0 6 1
pinlabel=GND
}
P 0 2100 300 2100 1 0 0
{
T 100 2150 5 8 1 1 0 0 1
pinnumber=8
T 100 2150 5 8 0 0 0 0 1
pinseq=8
T 350 2100 3 8 1 1 0 0 1
pinlabel=OSCIN
}
P 0 1700 300 1700 1 0 0
{
T 100 1750 5 8 1 1 0 0 1
pinnumber=5
T 100 1750 5 8 0 0 0 0 1
pinseq=5
T 350 1700 3 8 1 1 0 0 1
pinlabel=FIN
}
P 0 1300 300 1300 1 0 0
{
T 100 1350 5 8 1 1 0 0 1
pinnumber=6
T 100 1350 5 8 0 0 0 0 1
pinseq=6
T 350 1300 3 8 1 1 0 0 1
pinlabel=-FIN
}
P 900 0 900 300 1 0 0
{
T 950 100 5 8 1 1 0 0 1
pinnumber=10
T 950 100 5 8 0 0 0 0 1
pinseq=10
T 900 350 3 8 1 1 0 3 1
pinlabel=CE
}
P 1300 0 1300 300 1 0 0
{
T 1350 100 5 8 1 1 0 0 1
pinnumber=11
T 1350 100 5 8 0 0 0 0 1
pinseq=11
T 1300 350 3 8 1 1 0 3 1
pinlabel=CLK
}
P 1700 0 1700 300 1 0 0
{
T 1750 100 5 8 1 1 0 0 1
pinnumber=12
T 1750 100 5 8 0 0 0 0 1
pinseq=12
T 1700 350 3 8 1 1 0 3 1
pinlabel=DATA
}
P 2100 0 2100 300 1 0 0
{
T 2150 100 5 8 1 1 0 0 1
pinnumber=13
T 2150 100 5 8 0 0 0 0 1
pinseq=13
T 2100 350 3 8 1 1 0 3 1
pinlabel=LE
}
B 300 300 2200 2200 3 0 0 0 -1 -1 0 -1 -1 -1 -1 -1
