v 20130925 2
T 600 8850 8 10 1 1 0 6 1
refdes=U?
P 0 6200 300 6200 1 0 0
{
T 205 6245 5 8 1 1 0 6 1
pinnumber=1
T 405 6145 9 8 1 1 0 0 1
pinlabel=PIO2_6/CT32B0_MAT1
}
P 0 5900 300 5900 1 0 0
{
T 205 5945 5 8 1 1 0 6 1
pinnumber=2
T 405 5845 9 8 1 1 0 0 1
pinlabel=PIO2_0/\_DTR\_/SSEL1
}
P 0 5600 300 5600 1 0 0
{
T 205 5645 5 8 1 1 0 6 1
pinnumber=3
T 405 5545 9 8 1 1 0 0 1
pinlabel=\_RESET\_/PIO0_0
}
P 0 5300 300 5300 1 0 0
{
T 205 5345 5 8 1 1 0 6 1
pinnumber=4
T 405 5245 9 8 1 1 0 0 1
pinlabel=PIO0_1/CLKOUT/CT32B0_MAT2
}
P 0 5000 300 5000 1 0 0
{
T 205 5045 5 8 1 1 0 6 1
pinnumber=5
T 405 4945 9 8 1 1 0 0 1
pinlabel=VSS
}
P 0 4700 300 4700 1 0 0
{
T 205 4745 5 8 1 1 0 6 1
pinnumber=6
T 405 4645 9 8 1 1 0 0 1
pinlabel=XTALIN
}
P 0 4400 300 4400 1 0 0
{
T 205 4445 5 8 1 1 0 6 1
pinnumber=7
T 405 4345 9 8 1 1 0 0 1
pinlabel=XTALOUT
}
P 0 4100 300 4100 1 0 0
{
T 205 4145 5 8 1 1 0 6 1
pinnumber=8
T 405 4045 9 8 1 1 0 0 1
pinlabel=VDD
}
P 0 3800 300 3800 1 0 0
{
T 205 3845 5 8 1 1 0 6 1
pinnumber=9
T 405 3745 9 8 1 1 0 0 1
pinlabel=PIO1_8/CT16B1_CAP0
}
P 0 3500 300 3500 1 0 0
{
T 205 3545 5 8 1 1 0 6 1
pinnumber=10
T 405 3445 9 8 1 1 0 0 1
pinlabel=PIO0_2/SSEL0/CT16B0_CAP0
}
P 0 2900 300 2900 1 0 0
{
T 205 2945 5 8 1 1 0 6 1
pinnumber=12
T 405 2845 9 8 1 1 0 0 1
pinlabel=PIO2_8/CT32B0_MAT3_TXD
}
P 2900 0 2900 300 1 0 0
{
T 2850 205 5 8 1 1 90 6 1
pinnumber=13
T 2950 405 9 8 1 1 90 0 1
pinlabel=PIO2_1/\_DSR\_/SCK1
}
P 3200 0 3200 300 1 0 0
{
T 3150 205 5 8 1 1 90 6 1
pinnumber=14
T 3250 405 9 8 1 1 90 0 1
pinlabel=PIO0_3
}
P 3500 0 3500 300 1 0 0
{
T 3450 205 5 8 1 1 90 6 1
pinnumber=15
T 3550 405 9 8 1 1 90 0 1
pinlabel=PIO0_4/SCL
}
P 3800 0 3800 300 1 0 0
{
T 3750 205 5 8 1 1 90 6 1
pinnumber=16
T 3850 405 9 8 1 1 90 0 1
pinlabel=PIO0_5/SDA
}
P 4400 0 4400 300 1 0 0
{
T 4350 205 5 8 1 1 90 6 1
pinnumber=18
T 4450 405 9 8 1 1 90 0 1
pinlabel=PIO3_4/CT16B0_CAP1/RXD
}
P 4700 0 4700 300 1 0 0
{
T 4650 205 5 8 1 1 90 6 1
pinnumber=19
T 4750 405 9 8 1 1 90 0 1
pinlabel=PIO2_4/CT16B1_MAT1/SSEL1
}
P 5000 0 5000 300 1 0 0
{
T 4950 205 5 8 1 1 90 6 1
pinnumber=20
T 5050 405 9 8 1 1 90 0 1
pinlabel=PIO2_5/CT32B0_MAT0
}
P 5900 0 5900 300 1 0 0
{
T 5850 205 5 8 1 1 90 6 1
pinnumber=23
T 5950 405 9 8 1 1 90 0 1
pinlabel=PIO0_7/\_CTS\_
}
P 6200 0 6200 300 1 0 0
{
T 6150 205 5 8 1 1 90 6 1
pinnumber=24
T 6250 405 9 8 1 1 90 0 1
pinlabel=PIO2_9/CT32B0_CAP0
}
P 9100 3200 8800 3200 1 0 0
{
T 8895 3245 5 8 1 1 0 0 1
pinnumber=26
T 8695 3145 9 8 1 1 0 6 1
pinlabel=PIO2_2/\_DCD\_/MISO1
}
P 9100 3500 8800 3500 1 0 0
{
T 8895 3545 5 8 1 1 0 0 1
pinnumber=27
T 8695 3445 9 8 1 1 0 6 1
pinlabel=PIO0_8/MISO0/CT16B0_MAT0
}
P 9100 3800 8800 3800 1 0 0
{
T 8895 3845 5 8 1 1 0 0 1
pinnumber=28
T 8695 3745 9 8 1 1 0 6 1
pinlabel=PIO0_9/MOSI0/CT16B0_MAT1
}
P 9100 4100 8800 4100 1 0 0
{
T 8895 4145 5 8 1 1 0 0 1
pinnumber=29
T 8695 4045 9 8 1 1 0 6 1
pinlabel=SWCLK/PIO0_10/SCK0/CT16B0_MAT2
}
P 9100 4400 8800 4400 1 0 0
{
T 8895 4445 5 8 1 1 0 0 1
pinnumber=30
T 8695 4345 9 8 1 1 0 6 1
pinlabel=PIO1_10/AD6/CT16B1_MAT1/MISO1
}
P 9100 4700 8800 4700 1 0 0
{
T 8895 4745 5 8 1 1 0 0 1
pinnumber=31
T 8695 4645 9 8 1 1 0 6 1
pinlabel=PIO2_11/SCK0/CT32B0_CAP1
}
P 9100 5000 8800 5000 1 0 0
{
T 8895 5045 5 8 1 1 0 0 1
pinnumber=32
T 8695 4945 9 8 1 1 0 6 1
pinlabel=R/PIO0_11/AD0/CT32B0_MAT3
}
P 9100 5300 8800 5300 1 0 0
{
T 8895 5345 5 8 1 1 0 0 1
pinnumber=33
T 8695 5245 9 8 1 1 0 6 1
pinlabel=R/PIO1_0/AD1/CT32B1_CAP0
}
P 9100 5600 8800 5600 1 0 0
{
T 8895 5645 5 8 1 1 0 0 1
pinnumber=34
T 8695 5545 9 8 1 1 0 6 1
pinlabel=R/PIO1_1/AD2/CT32B1_MAT0
}
P 9100 5900 8800 5900 1 0 0
{
T 8895 5945 5 8 1 1 0 0 1
pinnumber=35
T 8695 5845 9 8 1 1 0 6 1
pinlabel=R/PIO1_2/AD3/CT32B1_MAT1
}
P 6200 9100 6200 8800 1 0 0
{
T 6150 8895 5 8 1 1 90 0 1
pinnumber=37
T 6250 8695 9 8 1 1 90 6 1
pinlabel=PIO3_1/DSR/CT16B0_MAT1/RXD
}
P 5900 9100 5900 8800 1 0 0
{
T 5850 8895 5 8 1 1 90 0 1
pinnumber=38
T 5950 8695 9 8 1 1 90 6 1
pinlabel=PIO2_3/\_RI\_/MOSI1
}
P 5600 9100 5600 8800 1 0 0
{
T 5550 8895 5 8 1 1 90 0 1
pinnumber=39
T 5650 8695 9 8 1 1 90 6 1
pinlabel=SWDIO/PIO1_3/AD4/CT32B1_MAT2
}
P 5300 9100 5300 8800 1 0 0
{
T 5250 8895 5 8 1 1 90 0 1
pinnumber=40
T 5350 8695 9 8 1 1 90 6 1
pinlabel=PIO1_4/AD5/CT32B1_MAT3/WAKEUP
}
P 5000 9100 5000 8800 1 0 0
{
T 4950 8895 5 8 1 1 90 0 1
pinnumber=41
T 5050 8695 9 8 1 1 90 6 1
pinlabel=VSS
}
P 4700 9100 4700 8800 1 0 0
{
T 4650 8895 5 8 1 1 90 0 1
pinnumber=42
T 4750 8695 9 8 1 1 90 6 1
pinlabel=PIO1_11/AD7/CT32B1_CAP1
}
P 3500 9100 3500 8800 1 0 0
{
T 3450 8895 5 8 1 1 90 0 1
pinnumber=46
T 3550 8695 9 8 1 1 90 6 1
pinlabel=PIO1_6/RXD/CT32B0_MAT0
}
P 3200 9100 3200 8800 1 0 0
{
T 3150 8895 5 8 1 1 90 0 1
pinnumber=47
T 3250 8695 9 8 1 1 90 6 1
pinlabel=PIO1_7/TXD/CT32B0_MAT1
}
P 2900 9100 2900 8800 1 0 0
{
T 2850 8895 5 8 1 1 90 0 1
pinnumber=48
T 2950 8695 9 8 1 1 90 6 1
pinlabel=PIO3_3/\_RI\_/CT16B0_CAP0
}
B 300 300 8500 8500 3 0 0 0 -1 -1 0 -1 -1 -1 -1 -1
T 7400 8850 8 10 1 1 0 0 1
value=LPC1114FBD48
P 0 3200 300 3200 1 0 0
{
T 205 3245 5 8 1 1 0 6 1
pinnumber=11
T 405 3145 9 8 1 1 0 0 1
pinlabel=PIO2_7/CT32B0_MAT2/RXD
}
P 4100 0 4100 300 1 0 0
{
T 4050 205 5 8 1 1 90 6 1
pinnumber=17
T 4150 405 9 8 1 1 90 0 1
pinlabel=PIO1_9/CT16B1_MAT0/MOSI1
}
P 5300 0 5300 300 1 0 0
{
T 5250 205 5 8 1 1 90 6 1
pinnumber=21
T 5350 405 9 8 1 1 90 0 1
pinlabel=PIO3_5/CT16B1_CAP1/TXD
}
P 5600 0 5600 300 1 0 0
{
T 5550 205 5 8 1 1 90 6 1
pinnumber=22
T 5650 405 9 8 1 1 90 0 1
pinlabel=PIO0_6/SCK0
}
P 9100 2900 8800 2900 1 0 0
{
T 8895 2945 5 8 1 1 0 0 1
pinnumber=25
T 8695 2845 9 8 1 1 0 6 1
pinlabel=PIO2_10
}
P 9100 6200 8800 6200 1 0 0
{
T 8895 6245 5 8 1 1 0 0 1
pinnumber=36
T 8695 6145 9 8 1 1 0 6 1
pinlabel=PIO3_0/\_DTR\_/CT16B0_MAT0/TXD
}
P 4400 9100 4400 8800 1 0 0
{
T 4350 8895 5 8 1 1 90 0 1
pinnumber=43
T 4450 8695 9 8 1 1 90 6 1
pinlabel=PIO3_2/\_DCD\_/CT16B0_MAT2/SCK1
}
P 4100 9100 4100 8800 1 0 0
{
T 4050 8895 5 8 1 1 90 0 1
pinnumber=44
T 4150 8695 9 8 1 1 90 6 1
pinlabel=VDD
}
P 3800 9100 3800 8800 1 0 0
{
T 3750 8895 5 8 1 1 90 0 1
pinnumber=45
T 3850 8695 9 8 1 1 90 6 1
pinlabel=PIO1_5/\_RTS\_/CT32B0_CAP0
}
