v 20020414
B 300 0 2000 4000 3 0 0 0 -1 -1 0 -1 -1 -1 -1 -1
T 2750 4000 5 10 0 0 0 0
device=MAX038
P 300 3000 0 3000 1
{
T 100 3050 5 8 1 1 0 0
pin3=3
}
P 300 2600 0 2600 1
{
T 100 2650 5 8 1 1 0 0
pin4=4
}
P 300 2200 0 2200 1
{
T 100 2250 5 8 1 1 0 0
pin5=5
}
P 300 1400 0 1400 1
{
T 100 1450 5 8 1 1 0 0
pin7=7
}
P 300 1000 0 1000 1
{
T 100 1050 5 8 1 1 0 0
pin8=8
}
P 300 200 0 200 1
{
T 100 250 5 8 1 1 0 0
pin10=10
}
P 2300 1000 2600 1000 1
{
T 2500 1050 5 8 1 1 0 6
pin13=13
}
P 0 3800 300 3800 1
{
T 150 3900 5 8 1 1 0 6
pin1=1
}
P 2600 600 2300 600 1
{
T 2400 650 5 8 1 1 0 0
pin12=12
}
P 2600 1400 2300 1400 1
{
T 2400 1450 5 8 1 1 0 0
pin14=14
}
P 2600 3400 2300 3400 1
{
T 2400 3450 5 8 1 1 0 0
pin19=19
}
T 750 3750 9 10 1 0 0 6
REF
T 1850 550 9 10 1 0 0 0
PDO
T 1750 1350 9 10 1 0 0 0
SYNC
T 1850 3350 9 10 1 0 0 0
OUT
T 400 2950 9 10 1 0 0 0
A0
T 400 2550 9 10 1 0 0 0
A1
T 400 2150 9 10 1 0 0 0
COSC
T 400 1350 9 10 1 0 0 0
DADJ
T 400 950 9 10 1 0 0 0
FADJ
T 400 150 9 10 1 0 0 0
IIN
T 2200 950 9 10 1 0 0 6
PDI
T 2200 3750 9 10 1 0 0 6
V-
P 2300 3800 2600 3800 1
{
T 2500 3850 5 8 1 1 0 6
pin20=20
}
T 350 4050 9 10 1 0 0 0
MAX038
T 2300 4100 8 10 1 1 0 6
uref=U?
P 0 3400 300 3400 1
{
T 150 3500 5 8 1 1 0 6
pin1=2
}
T 750 3350 9 10 1 0 0 6
GND
P 0 1800 300 1800 1
{
T 150 1900 5 8 1 1 0 6
pin1=6
}
T 750 1750 9 10 1 0 0 6
GND
P 0 600 300 600 1
{
T 150 700 5 8 1 1 0 6
pin1=9
}
T 750 550 9 10 1 0 0 6
GND
P 2300 2600 2600 2600 1
{
T 2500 2650 5 8 1 1 0 6
pin17=17
}
T 2200 2550 9 10 1 0 0 6
V+
P 2600 3000 2300 3000 1
P 2600 3000 2300 3000 1
{
T 2400 3050 5 8 1 1 0 0
pin12=18
}
T 1850 2950 9 10 1 0 0 0
GND
P 2600 2200 2300 2200 1
{
T 2400 2250 5 8 1 1 0 0
pin12=16
}
T 1900 2150 9 10 1 0 0 0
DV+
P 2600 1800 2300 1800 1
{
T 2400 1850 5 8 1 1 0 0
pin12=15
}
T 1700 1750 9 10 1 0 0 0
DGND
P 2600 200 2300 200 1
{
T 2400 250 5 8 1 1 0 0
pin12=11
}
T 1850 150 9 10 1 0 0 0
GND
T 2750 3700 5 10 0 0 0 0
footprint=DIL 20 300
