v 20030223
T 200 900 8 10 1 1 0 0
refdes=U?
P 200 200 0 200 1 0 1
{
T 50 225 5 8 1 1 0 0
pinnumber=2
T 50 225 5 8 0 0 0 0
pinseq=2
}
P 200 600 0 600 1 0 1
{
T 50 625 5 8 1 1 0 0
pinnumber=3
T 50 625 5 8 0 0 0 0
pinseq=3
}
P 500 200 500 0 1 0 1
{
T 525 50 5 8 1 1 0 0
pinnumber=4
T 525 50 5 8 0 0 0 0
pinseq=4
}
P 800 400 1000 400 1 0 1
{
T 875 425 5 8 1 1 0 0
pinnumber=6
T 875 425 5 8 0 0 0 0
pinseq=6
}
P 500 600 500 800 1 0 1
{
T 550 675 5 8 1 1 0 0
pinnumber=7
T 550 675 5 8 0 0 0 0
pinseq=7
}
L 200 800 200 0 3 0 0 0 -1 -1
L 800 400 200 800 3 0 0 0 -1 -1
L 300 650 300 550 3 0 0 0 -1 -1
L 250 600 350 600 3 0 0 0 -1 -1
L 250 200 350 200 3 0 0 0 -1 -1
L 800 400 200 0 3 0 0 0 -1 -1
P 700 500 700 700 1 0 1
{
T 750 575 5 8 1 1 0 0
pinnumber=5
T 750 575 5 8 0 0 0 0
pinseq=5
}
P 700 300 700 100 1 0 1
{
T 750 225 5 8 1 1 180 6
pinnumber=1
T 750 225 5 8 0 0 180 6
pinseq=1
}
