v 20061020 1
P 300 800 0 800 1 0 1
{
T 100 825 5 10 1 1 0 0 1
pinnumber=1
T 400 750 5 10 1 1 0 0 1
pinlabel=GND
}
T 1800 1100 8 10 1 1 0 6 1
refdes=U?
B 300 0 1400 1000 3 0 0 0 -1 -1 0 -1 -1 -1 -1 -1
A 1000 1000 129 180 180 3 0 0 0 -1 -1
T 300 1100 8 10 1 1 0 0 1
value=PD3150
P 300 500 0 500 1 0 1
{
T 100 525 5 10 1 1 0 0 1
pinnumber=2
T 400 450 5 10 1 1 0 0 1
pinlabel=IN
}
P 300 200 0 200 1 0 1
{
T 100 225 5 10 1 1 0 0 1
pinnumber=3
T 400 150 5 10 1 1 0 0 1
pinlabel=GND
}
P 1700 200 2000 200 1 0 1
{
T 1800 225 5 10 1 1 0 0 1
pinnumber=4
T 1600 150 5 10 1 1 0 6 1
pinlabel=OUT1
}
P 1700 500 2000 500 1 0 1
{
T 1900 525 5 10 1 1 0 6 1
pinnumber=5
T 1600 450 5 10 1 1 0 6 1
pinlabel=GND
}
P 1700 800 2000 800 1 0 1
{
T 1900 825 5 10 1 1 0 6 1
pinnumber=6
T 1600 750 5 10 1 1 0 6 1
pinlabel=OUT2
}
