v 20040111 1
T 600 3600 8 10 1 1 0 0 1
refdes=U?
P 2100 4200 2100 3900 1 0 0
{
T 2100 4200 5 10 1 1 270 0 1
pinnumber=1
T 2100 4200 5 10 0 1 270 0 1
pinseq=1
}
P 1800 4200 1800 3900 1 0 0
{
T 1800 4200 5 10 1 1 270 0 1
pinnumber=2
T 1800 4200 5 10 0 1 270 0 1
pinseq=2
}
P 1500 4200 1500 3900 1 0 0
{
T 1500 4200 5 10 1 1 270 0 1
pinnumber=3
T 1500 4200 5 10 0 1 270 0 1
pinseq=3
}
P 1200 4200 1200 3900 1 0 0
{
T 1200 4200 5 10 1 1 270 0 1
pinnumber=4
T 1200 4200 5 10 0 1 270 0 1
pinseq=4
}
P 900 4200 900 3900 1 0 0
{
T 900 4200 5 10 1 1 270 0 1
pinnumber=5
T 900 4200 5 10 0 1 270 0 1
pinseq=5
}
P 600 4200 600 3900 1 0 0
{
T 600 4200 5 10 1 1 270 0 1
pinnumber=6
T 600 4200 5 10 0 1 270 0 1
pinseq=6
}
P 0 3600 300 3600 1 0 0
{
T 100 3700 5 10 1 1 0 0 1
pinnumber=7
T 0 3600 5 10 0 1 0 0 1
pinseq=7
}
P 0 3300 300 3300 1 0 0
{
T 100 3400 5 10 1 1 0 0 1
pinnumber=8
T 0 3300 5 10 0 1 0 0 1
pinseq=8
}
P 0 3000 300 3000 1 0 0
{
T 100 3100 5 10 1 1 0 0 1
pinnumber=9
T 0 3000 5 10 0 1 0 0 1
pinseq=9
}
P 0 2700 300 2700 1 0 0
{
T 100 2800 5 10 1 1 0 0 1
pinnumber=10
T 0 2700 5 10 0 1 0 0 1
pinseq=10
}
P 0 2400 300 2400 1 0 0
{
T 100 2500 5 10 1 1 0 0 1
pinnumber=11
T 0 2400 5 10 0 1 0 0 1
pinseq=11
}
P 0 2100 300 2100 1 0 0
{
T 100 2200 5 10 1 1 0 0 1
pinnumber=12
T 0 2100 5 10 0 1 0 0 1
pinseq=12
}
P 0 1800 300 1800 1 0 0
{
T 100 1800 5 10 1 1 0 0 1
pinnumber=13
T 0 1800 5 10 0 1 0 0 1
pinseq=13
}
P 0 1500 300 1500 1 0 0
{
T 100 1600 5 10 1 1 0 0 1
pinnumber=14
T 0 1500 5 10 0 1 0 0 1
pinseq=14
}
P 0 600 300 600 1 0 0
{
T 100 800 5 10 1 1 180 6 1
pinnumber=17
T 0 600 5 10 0 1 180 6 1
pinseq=17
}
P 0 900 300 900 1 0 0
{
T 100 1100 5 10 1 1 180 6 1
pinnumber=16
T 0 900 5 10 0 1 180 6 1
pinseq=16
}
P 0 1200 300 1200 1 0 0
{
T 100 1400 5 10 1 1 180 6 1
pinnumber=15
T 0 1200 5 10 0 1 180 6 1
pinseq=15
}
P 3600 0 3600 300 1 0 0
{
T 3600 0 5 10 1 1 270 6 1
pinnumber=28
T 3600 0 5 10 0 1 270 6 1
pinseq=28
}
P 3300 0 3300 300 1 0 0
{
T 3300 0 5 10 1 1 270 6 1
pinnumber=27
T 3300 0 5 10 0 1 270 6 1
pinseq=27
}
P 3000 0 3000 300 1 0 0
{
T 3000 0 5 10 1 1 270 6 1
pinnumber=26
T 3000 0 5 10 0 1 270 6 1
pinseq=26
}
P 2700 0 2700 300 1 0 0
{
T 2700 0 5 10 1 1 270 6 1
pinnumber=25
T 2700 0 5 10 0 1 270 6 1
pinseq=25
}
P 2400 0 2400 300 1 0 0
{
T 2400 0 5 10 1 1 270 6 1
pinnumber=24
T 2400 0 5 10 0 1 270 6 1
pinseq=24
}
P 2100 0 2100 300 1 0 0
{
T 2100 0 5 10 1 1 270 6 1
pinnumber=23
T 2100 0 5 10 0 1 270 6 1
pinseq=23
}
P 1800 0 1800 300 1 0 0
{
T 1800 0 5 10 1 1 270 6 1
pinnumber=22
T 1800 0 5 10 0 1 270 6 1
pinseq=22
}
P 1500 0 1500 300 1 0 0
{
T 1500 0 5 10 1 1 270 6 1
pinnumber=21
T 1500 0 5 10 0 1 270 6 1
pinseq=21
}
P 1200 0 1200 300 1 0 0
{
T 1200 0 5 10 1 1 270 6 1
pinnumber=20
T 1200 0 5 10 0 1 270 6 1
pinseq=20
}
P 900 0 900 300 1 0 0
{
T 900 0 5 10 1 1 270 6 1
pinnumber=19
T 900 0 5 10 0 1 270 6 1
pinseq=19
}
P 600 0 600 300 1 0 0
{
T 600 0 5 10 1 1 270 6 1
pinnumber=18
T 600 0 5 10 0 1 270 6 1
pinseq=18
}
B 300 300 3600 3600 3 0 0 0 -1 -1 0 -1 -1 -1 -1 -1
B 2000 3400 200 200 3 0 0 0 -1 -1 0 -1 -1 -1 -1 -1
P 4200 3600 3900 3600 1 0 0
{
T 4200 3700 5 10 1 1 0 6 1
pinnumber=39
T 4200 3600 5 10 0 1 0 6 1
pinseq=39
}
P 4200 3300 3900 3300 1 0 0
{
T 4200 3400 5 10 1 1 0 6 1
pinnumber=38
T 4200 3300 5 10 0 1 0 6 1
pinseq=38
}
P 4200 3000 3900 3000 1 0 0
{
T 4200 3100 5 10 1 1 0 6 1
pinnumber=37
T 4200 3000 5 10 0 1 0 6 1
pinseq=37
}
P 4200 2700 3900 2700 1 0 0
{
T 4200 2800 5 10 1 1 0 6 1
pinnumber=36
T 4200 2700 5 10 0 1 0 6 1
pinseq=36
}
P 4200 2400 3900 2400 1 0 0
{
T 4200 2500 5 10 1 1 0 6 1
pinnumber=35
T 4200 2400 5 10 0 1 0 6 1
pinseq=35
}
P 4200 2100 3900 2100 1 0 0
{
T 4200 2200 5 10 1 1 0 6 1
pinnumber=34
T 4200 2100 5 10 0 1 0 6 1
pinseq=34
}
P 4200 1800 3900 1800 1 0 0
{
T 4200 1900 5 10 1 1 0 6 1
pinnumber=33
T 4200 1800 5 10 0 1 0 6 1
pinseq=33
}
P 4200 1500 3900 1500 1 0 0
{
T 4200 1600 5 10 1 1 0 6 1
pinnumber=32
T 4200 1500 5 10 0 1 0 6 1
pinseq=32
}
P 4200 600 3900 600 1 0 0
{
T 4200 800 5 10 1 1 180 0 1
pinnumber=29
T 4200 600 5 10 0 1 180 0 1
pinseq=29
}
P 4200 900 3900 900 1 0 0
{
T 4200 1100 5 10 1 1 180 0 1
pinnumber=30
T 4200 900 5 10 0 1 180 0 1
pinseq=30
}
P 4200 1200 3900 1200 1 0 0
{
T 4200 1400 5 10 1 1 180 0 1
pinnumber=31
T 4200 1200 5 10 0 1 180 0 1
pinseq=31
}
P 3600 4200 3600 3900 1 0 0
{
T 3600 4200 5 10 1 1 270 0 1
pinnumber=40
T 3600 4200 5 10 0 1 270 0 1
pinseq=40
}
P 3300 4200 3300 3900 1 0 0
{
T 3300 4200 5 10 1 1 270 0 1
pinnumber=41
T 3300 4200 5 10 0 1 270 0 1
pinseq=41
}
P 3000 4200 3000 3900 1 0 0
{
T 3000 4200 5 10 1 1 270 0 1
pinnumber=42
T 3000 4200 5 10 0 1 270 0 1
pinseq=42
}
P 2700 4200 2700 3900 1 0 0
{
T 2700 4200 5 10 1 1 270 0 1
pinnumber=43
T 2700 4200 5 10 0 1 270 0 1
pinseq=43
}
P 2400 4200 2400 3900 1 0 0
{
T 2400 4200 5 10 1 1 270 0 1
pinnumber=44
T 2400 4200 5 10 0 1 270 0 1
pinseq=44
}
