v 20080127 1
P 900 200 750 200 1 0 0
{
T 800 250 5 8 0 1 0 0 1
pinnumber=2
T 800 250 5 8 0 1 0 0 1
pinlabel=2
}
P 0 200 152 200 1 0 0
{
T 100 250 5 8 0 1 0 0 1
pinnumber=1
T 100 250 5 8 0 1 0 0 1
pinlabel=1
}
B 150 100 600 200 3 0 0 0 -1 -1 0 -1 -1 -1 -1 -1
T 200 400 8 10 1 1 0 0 1
refdes=R?
L 720 340 560 340 3 0 0 0 -1 -1
L 180 60 340 60 3 0 0 0 -1 -1
L 560 340 340 60 3 0 0 0 -1 -1
T 500 0 9 6 1 0 0 0 1
PTC
