v 20080127 1
P 100 100 100 250 1 0 0
{
T 0 50 5 8 1 1 0 0 1
pinnumber=3
}
P 100 1000 100 850 1 0 0
{
T 0 950 5 8 1 1 0 0 1
pinnumber=2
}
A 100 763 75 270 180 3 0 0 0 -1 -1
A 100 621 75 270 180 3 0 0 0 -1 -1
A 100 479 75 270 180 3 0 0 0 -1 -1
A 100 337 75 270 180 3 0 0 0 -1 -1
L 100 262 100 250 3 0 0 0 -1 -1
L 100 850 100 838 3 0 0 0 -1 -1
A 100 692 4 90 180 3 0 0 0 -1 -1
A 100 550 4 90 180 3 0 0 0 -1 -1
A 100 408 4 90 180 3 0 0 0 -1 -1
T 1100 800 8 10 1 1 0 0 1
refdes=K?
P 500 800 500 1000 1 0 1
{
T 450 1050 5 10 1 1 180 0 1
pinnumber=5
}
P 900 800 900 1000 1 0 1
{
T 850 1050 5 10 1 1 180 0 1
pinnumber=4
}
L 700 500 500 700 3 0 0 0 -1 -1
P 700 300 700 100 1 0 1
{
T 650 150 5 10 1 1 180 0 1
pinnumber=1
}
L 500 700 500 600 3 0 0 0 -1 -1
L 500 700 600 700 3 0 0 0 -1 -1
L 500 800 500 700 3 0 0 0 -1 -1
L 900 800 900 700 3 0 0 0 -1 -1
L 700 300 700 500 3 0 0 0 -1 -1
B 0 200 1000 700 3 0 0 0 -1 -1 0 -1 -1 -1 -1 -1
T 1100 600 8 10 1 1 0 0 1
value=ES_A
