v 20030901
P 500 400 500 600 1 0 1
{
T 400 450 5 10 1 1 0 0
pinnumber=1
T 500 450 5 10 0 1 0 0
pinseq=1
}
L 500 200 448 301 3 0 0 0 -1 -1
L 501 201 553 302 3 0 0 0 -1 -1
L 600 200 500 0 3 0 0 0 -1 -1
L 500 0 400 200 3 0 0 0 -1 -1
L 400 200 300 0 3 0 0 0 -1 -1
L 300 0 200 200 3 0 0 0 -1 -1
T 800 900 5 10 0 0 0 0
device=VARIABLE_RESISTOR
L 600 200 700 0 3 0 0 0 -1 -1
L 700 0 750 100 3 0 0 0 -1 -1
P 900 100 750 100 1 0 0
{
T 800 200 5 10 1 1 0 0
pinnumber=2
T 900 100 5 10 0 1 0 0
pinseq=2
}
P 0 100 152 100 1 0 0
{
T 0 200 5 10 1 1 0 0
pinnumber=3
T 0 100 5 10 0 1 0 0
pinseq=3
}
L 201 200 150 100 3 0 0 0 -1 -1
L 500 200 500 400 3 0 0 0 -1 -1
T 700 500 8 10 1 1 0 0
refdes=R?
