v 20061020 1
P 500 300 500 0 1 0 1
{
T 350 200 5 10 1 1 180 6 1
pinnumber=1
T 550 400 5 10 1 1 90 0 1
pinlabel=GND
}
T 2600 2300 8 10 1 1 0 6 1
refdes=U?
P 800 300 800 0 1 0 1
{
T 650 200 5 10 1 1 180 6 1
pinnumber=2
T 850 400 5 10 1 1 90 0 1
pinlabel=GND
}
P 1100 300 1100 0 1 0 1
{
T 950 200 5 10 1 1 180 6 1
pinnumber=3
T 1150 400 5 10 1 1 90 0 1
pinlabel=GND
}
P 1400 300 1400 0 1 0 1
{
T 1250 200 5 10 1 1 180 6 1
pinnumber=4
T 1450 400 5 10 1 1 90 0 1
pinlabel=GND
}
P 1700 300 1700 0 1 0 1
{
T 1550 200 5 10 1 1 180 6 1
pinnumber=6
T 1750 400 5 10 1 1 90 0 1
pinlabel=GND
}
P 300 1300 0 1300 1 0 1
{
T 100 1350 5 10 1 1 0 0 1
pinnumber=5
T 400 1250 5 10 1 1 0 0 1
pinlabel=IN
}
P 2000 300 2000 0 1 0 1
{
T 1850 200 5 10 1 1 180 6 1
pinnumber=7
T 2050 400 5 10 1 1 90 0 1
pinlabel=GND
}
P 2000 2300 2000 2600 1 0 1
{
T 2000 2550 5 10 1 1 180 0 1
pinnumber=8
T 2000 2250 5 10 1 1 90 6 1
pinlabel=GND
}
T 2300 100 8 10 1 1 0 0 1
value=RF2360
P 2200 1300 2500 1300 1 0 1
{
T 2450 1350 5 10 1 1 0 6 1
pinnumber=12
T 2100 1250 5 10 1 1 0 6 1
pinlabel=OUT
}
P 500 2300 500 2600 1 0 1
{
T 500 2550 5 10 1 1 180 0 1
pinnumber=14
T 500 2250 5 10 1 1 90 6 1
pinlabel=GND
}
P 800 2300 800 2600 1 0 1
{
T 800 2550 5 10 1 1 180 0 1
pinnumber=13
T 800 2250 5 10 1 1 90 6 1
pinlabel=GND
}
P 1100 2300 1100 2600 1 0 1
{
T 1100 2550 5 10 1 1 180 0 1
pinnumber=11
T 1100 2250 5 10 1 1 90 6 1
pinlabel=GND
}
P 1400 2300 1400 2600 1 0 1
{
T 1400 2550 5 10 1 1 180 0 1
pinnumber=10
T 1400 2250 5 10 1 1 90 6 1
pinlabel=GND
}
P 1700 2300 1700 2600 1 0 1
{
T 1700 2550 5 10 1 1 180 0 1
pinnumber=9
T 1700 2250 5 10 1 1 90 6 1
pinlabel=GND
}
B 300 300 1900 2000 3 0 0 0 -1 -1 0 -1 -1 -1 -1 -1
L 800 1600 800 1000 3 0 0 0 -1 -1
L 800 1000 1500 1300 3 0 0 0 -1 -1
L 1500 1300 800 1600 3 0 0 0 -1 -1
