v 20040111 1
T 400 1200 8 10 1 1 0 0 1
refdes=S?
P 300 1000 0 1000 1 0 1
{
T 100 1050 5 8 1 1 0 0 1
pinnumber=1
T 300 1000 5 10 0 1 0 0 1
pinseq=1
}
P 300 700 0 700 1 0 1
{
T 100 750 5 8 1 1 0 0 1
pinnumber=2
T 300 700 5 10 0 1 0 0 1
pinseq=2
}
P 300 400 0 400 1 0 1
{
T 100 450 5 8 1 1 0 0 1
pinnumber=3
T 300 400 5 10 0 1 0 0 1
pinseq=3
}
P 1000 700 1300 700 1 0 1
{
T 1150 750 5 8 1 1 0 0 1
pinnumber=5
T 1000 700 5 10 0 1 0 0 1
pinseq=5
}
L 800 950 1000 700 3 0 0 0 -1 -1
L 800 950 800 850 3 0 0 0 -1 -1
L 800 950 900 900 3 0 0 0 -1 -1
P 300 100 0 100 1 0 1
{
T 150 250 5 8 1 1 180 0 1
pinnumber=4
T 300 100 5 10 0 1 0 0 1
pinseq=4
}
B 300 0 400 1100 3 0 0 0 -1 -1 0 -1 -1 -1 -1 -1
L 700 950 800 950 3 0 0 0 -1 -1
L 700 900 800 900 3 0 0 0 -1 -1
L 700 850 800 850 3 0 0 0 -1 -1
L 700 800 800 800 3 0 0 0 -1 -1
L 700 750 800 750 3 0 0 0 -1 -1
L 700 700 800 700 3 0 0 0 -1 -1
L 700 650 800 650 3 0 0 0 -1 -1
L 700 600 800 600 3 0 0 0 -1 -1
L 700 550 800 550 3 0 0 0 -1 -1
L 700 500 800 500 3 0 0 0 -1 -1
L 700 450 800 450 3 0 0 0 -1 -1
L 700 400 800 400 3 0 0 0 -1 -1
L 700 350 800 350 3 0 0 0 -1 -1
L 700 300 800 300 3 0 0 0 -1 -1
L 700 250 800 250 3 0 0 0 -1 -1
L 700 200 800 200 3 0 0 0 -1 -1
L 700 150 800 150 3 0 0 0 -1 -1
T 650 350 9 10 1 0 90 0 1
HEX
T 350 950 9 6 1 0 0 0 1
A
T 350 650 9 6 1 0 0 0 1
B
T 350 350 9 6 1 0 0 0 1
C
T 350 50 9 6 1 0 0 0 1
D
