v 20060123 1
P 900 300 900 0 1 0 1
{
T 850 100 5 10 1 1 90 0 1
pinnumber=1
T 900 300 5 10 0 1 90 0 1
pinseq=1
T 950 400 5 10 1 1 90 0 1
pinlabel=VT
}
T 2400 2400 8 10 1 1 0 6 1
refdes=U?
P 1200 300 1200 0 1 0 1
{
T 1150 100 5 10 1 1 90 0 1
pinnumber=2
T 1200 300 5 10 0 1 90 0 1
pinseq=2
T 1250 400 5 10 1 1 90 0 1
pinlabel=GND
}
P 1500 300 1500 0 1 0 1
{
T 1450 100 5 10 1 1 90 0 1
pinnumber=3
T 1500 300 5 10 0 1 90 0 1
pinseq=3
T 1550 400 5 10 1 1 90 0 1
pinlabel=GND
}
P 2100 1000 2400 1000 1 0 1
{
T 2300 1050 5 10 1 1 0 6 1
pinnumber=4
T 2100 1000 5 10 0 1 0 6 1
pinseq=4
T 2000 950 5 10 1 1 0 6 1
pinlabel=GND
}
P 2100 1300 2400 1300 1 0 1
{
T 2300 1450 5 10 1 1 180 0 1
pinnumber=5
T 2100 1300 5 10 0 1 180 0 1
pinseq=5
T 2000 1350 5 10 1 1 180 0 1
pinlabel=GND
}
P 2100 1600 2400 1600 1 0 1
{
T 2300 1750 5 10 1 1 180 0 1
pinnumber=6
T 2100 1600 5 10 0 1 180 0 1
pinseq=6
T 2000 1650 5 10 1 1 180 0 1
pinlabel=GND
}
P 1500 2200 1500 2500 1 0 1
{
T 1450 2300 5 10 1 1 90 0 1
pinnumber=7
T 1500 2200 5 10 0 1 270 0 1
pinseq=7
T 1550 1700 5 10 1 1 90 0 1
pinlabel=GND
}
P 1200 2200 1200 2500 1 0 1
{
T 1150 2300 5 10 1 1 90 0 1
pinnumber=8
T 1200 2200 5 10 0 1 270 0 1
pinseq=8
T 1250 1700 5 10 1 1 90 0 1
pinlabel=OUT
}
T 1900 100 8 10 1 1 0 0 1
value=SMV2165
P 300 1600 0 1600 1 0 1
{
T 50 1650 5 10 1 1 0 0 1
pinnumber=12
T 300 1600 5 10 0 1 0 0 1
pinseq=12
T 400 1550 5 10 1 1 0 0 1
pinlabel=GND
}
P 300 1300 0 1300 1 0 1
{
T 50 1350 5 10 1 1 0 0 1
pinnumber=11
T 300 1300 5 10 0 1 0 0 1
pinseq=11
T 400 1250 5 10 1 1 0 0 1
pinlabel=VCC
}
P 300 1000 0 1000 1 0 1
{
T 50 1050 5 10 1 1 0 0 1
pinnumber=10
T 300 1000 5 10 0 1 0 0 1
pinseq=10
T 400 950 5 10 1 1 0 0 1
pinlabel=GND
}
P 900 2200 900 2500 1 0 1
{
T 850 2450 5 10 1 1 90 6 1
pinnumber=9
T 900 2200 5 10 0 1 90 6 1
pinseq=9
T 950 2100 5 10 1 1 90 6 1
pinlabel=GND
}
B 300 300 1800 1900 3 0 0 0 -1 -1 0 -1 -1 -1 -1 -1
B 500 500 200 200 3 0 0 0 -1 -1 0 -1 -1 -1 -1 -1
