v 20201216 2
P 0 2900 300 2900 1 0 0
{
T 75 2950 5 10 1 1 0 0 1
pinnumber=1
T 400 2850 5 10 1 1 0 0 1
pinlabel=BOOT0
}
P 0 2600 300 2600 1 0 0
{
T 75 2650 5 10 1 1 0 0 1
pinnumber=2
T 400 2550 5 10 1 1 0 0 1
pinlabel=PC14_OSCIN
}
P 0 2300 300 2300 1 0 0
{
T 75 2350 5 10 1 1 0 0 1
pinnumber=3
T 400 2250 5 10 1 1 0 0 1
pinlabel=PC15_OSCOUT
}
P 0 2000 300 2000 1 0 0
{
T 75 2050 5 10 1 1 0 0 1
pinnumber=4
T 400 1950 5 10 1 1 0 0 1
pinlabel=\_RST
}
P 0 1700 300 1700 1 0 0
{
T 75 1750 5 10 1 1 0 0 1
pinnumber=5
T 400 1650 5 10 1 1 0 0 1
pinlabel=VDDA
}
P 0 1400 300 1400 1 0 0
{
T 75 1450 5 10 1 1 0 0 1
pinnumber=6
T 400 1350 5 10 1 1 0 0 1
pinlabel=PA0_CKIN
}
P 0 1100 300 1100 1 0 0
{
T 75 1150 5 10 1 1 0 0 1
pinnumber=7
T 400 1050 5 10 1 1 0 0 1
pinlabel=PA1
}
P 0 800 300 800 1 0 0
{
T 75 850 5 10 1 1 0 0 1
pinnumber=8
T 400 750 5 10 1 1 0 0 1
pinlabel=PA2
}
P 0 500 300 500 1 0 0
{
T 75 550 5 10 1 1 0 0 1
pinnumber=9
T 400 450 5 10 1 1 0 0 1
pinlabel=PA3
}
P 0 200 300 200 1 0 0
{
T 75 250 5 10 1 1 0 0 1
pinnumber=10
T 400 150 5 10 1 1 0 0 1
pinlabel=PA4
}
P 3000 500 2700 500 1 0 0
{
T 2795 545 5 10 1 1 0 0 1
pinnumber=12
T 2595 445 5 10 1 1 0 6 1
pinlabel=PA6
}
P 3000 200 2700 200 1 0 0
{
T 2795 245 5 10 1 1 0 0 1
pinnumber=11
T 2595 145 5 10 1 1 0 6 1
pinlabel=PA5
}
P 3000 800 2700 800 1 0 0
{
T 2795 845 5 10 1 1 0 0 1
pinnumber=13
T 2570 745 5 10 1 1 0 6 1
pinlabel=PA7
}
P 3000 1100 2700 1100 1 0 0
{
T 2795 1145 5 10 1 1 0 0 1
pinnumber=14
T 2595 1045 5 10 1 1 0 6 1
pinlabel=PB1
}
P 3000 1400 2700 1400 1 0 0
{
T 2975 1450 5 10 1 1 0 6 1
pinnumber=15
T 2600 1350 5 10 1 1 0 6 1
pinlabel=VSS
}
P 3000 1700 2700 1700 1 0 0
{
T 2975 1750 5 10 1 1 0 6 1
pinnumber=16
T 2600 1650 5 10 1 1 0 6 1
pinlabel=VDD
}
P 3000 2000 2700 2000 1 0 0
{
T 2975 2050 5 10 1 1 0 6 1
pinnumber=17
T 2600 1950 5 10 1 1 0 6 1
pinlabel=PA9
}
P 3000 2300 2700 2300 1 0 0
{
T 2975 2350 5 10 1 1 0 6 1
pinnumber=18
T 2600 2250 5 10 1 1 0 6 1
pinlabel=PA10
}
P 3000 2600 2700 2600 1 0 0
{
T 2975 2650 5 10 1 1 0 6 1
pinnumber=19
T 2600 2550 5 10 1 1 0 6 1
pinlabel=PA13
}
P 3000 2900 2700 2900 1 0 0
{
T 2975 2950 5 10 1 1 0 6 1
pinnumber=20
T 2600 2850 5 10 1 1 0 6 1
pinlabel=PA14
}
B 300 0 2400 3100 3 0 0 0 -1 -1 0 -1 -1 -1 -1 -1
T 300 3200 8 10 1 1 0 0 1
refdes=U?
T 1700 3200 8 10 1 1 0 0 1
value=STM32L031
A 1500 3100 200 180 180 3 0 0 0 -1 -1
T 400 3400 8 10 0 0 0 0 1
footprint=tssop20
