v 20080127 1
L 574 387 474 387 3 0 0 0 -1 -1
L 474 387 494 347 3 0 0 0 -1 -1
L 494 347 514 307 3 0 0 0 -1 -1
L 514 307 574 387 3 0 0 0 -1 -1
V 200 200 30 3 0 0 0 -1 -1 0 -1 -1 -1 -1 -1
V 600 0 30 3 0 0 0 -1 -1 0 -1 -1 -1 -1 -1
V 600 400 30 3 0 0 0 -1 -1 0 -1 -1 -1 -1 -1
L 350 550 350 500 3 0 0 0 -1 -1
L 350 450 350 400 3 0 0 0 -1 -1
L 350 350 350 300 3 0 0 0 -1 -1
L 574 1187 474 1187 3 0 0 0 -1 -1
L 474 1187 494 1147 3 0 0 0 -1 -1
L 494 1147 514 1107 3 0 0 0 -1 -1
L 514 1107 574 1187 3 0 0 0 -1 -1
V 200 1000 30 3 0 0 0 -1 -1 0 -1 -1 -1 -1 -1
V 600 800 30 3 0 0 0 -1 -1 0 -1 -1 -1 -1 -1
V 600 1200 30 3 0 0 0 -1 -1 0 -1 -1 -1 -1 -1
L 227 1012 495 1146 3 0 0 0 -1 -1
P 0 1000 200 1000 1 0 0
{
T 75 1025 5 10 1 1 0 0 1
pinnumber=1
}
L 350 850 350 800 3 0 0 0 -1 -1
L 350 750 350 700 3 0 0 0 -1 -1
L 350 650 350 600 3 0 0 0 -1 -1
L 350 1050 350 1000 3 0 0 0 -1 -1
L 350 950 350 900 3 0 0 0 -1 -1
P 800 1200 600 1200 1 0 0
{
T 695 1245 5 10 1 1 0 0 1
pinnumber=3
}
P 800 800 600 800 1 0 0
{
T 695 845 5 10 1 1 0 0 1
pinnumber=4
}
P 0 200 200 200 1 0 0
{
T 75 225 5 10 1 1 0 0 1
pinnumber=2
}
P 800 400 600 400 1 0 0
{
T 695 445 5 10 1 1 0 0 1
pinnumber=5
}
P 800 0 600 0 1 0 0
{
T 695 45 5 10 1 1 0 0 1
pinnumber=6
}
T 100 1400 8 10 1 1 0 0 1
refdes=S?
L 227 212 495 346 3 0 0 0 -1 -1
