v 20070902 1
T 700 8100 8 10 1 1 0 6 1
refdes=U?
P 1300 0 1300 300 1 0 0
{
T 1250 205 5 8 1 1 90 6 1
pinnumber=1
T 1350 200 5 8 0 1 90 8 1
pinseq=1
T 1300 355 9 8 1 1 90 0 1
pinlabel=VDDA33
T 1300 350 5 8 0 1 90 2 1
pintype=io
}
P 1600 0 1600 300 1 0 0
{
T 1550 205 5 8 1 1 90 6 1
pinnumber=2
T 1650 200 5 8 0 1 90 8 1
pinseq=2
T 1600 355 9 8 1 1 90 0 1
pinlabel=USBDP3
T 1600 350 5 8 0 1 90 2 1
pintype=io
}
P 1900 0 1900 300 1 0 0
{
T 1850 205 5 8 1 1 90 6 1
pinnumber=3
T 1950 200 5 8 0 1 90 8 1
pinseq=3
T 1900 355 9 8 1 1 90 0 1
pinlabel=USBDN3
T 1900 350 5 8 0 1 90 2 1
pintype=io
}
P 2200 0 2200 300 1 0 0
{
T 2150 205 5 8 1 1 90 6 1
pinnumber=4
T 2250 200 5 8 0 1 90 8 1
pinseq=4
T 2200 355 9 8 1 1 90 0 1
pinlabel=VSS
T 2200 350 5 8 0 1 90 2 1
pintype=io
}
P 2500 0 2500 300 1 0 0
{
T 2450 205 5 8 1 1 90 6 1
pinnumber=5
T 2550 200 5 8 0 1 90 8 1
pinseq=5
T 2500 355 9 8 1 1 90 0 1
pinlabel=USBDN4
T 2500 350 5 8 0 1 90 2 1
pintype=io
}
P 2800 0 2800 300 1 0 0
{
T 2750 205 5 8 1 1 90 6 1
pinnumber=6
T 2850 200 5 8 0 1 90 8 1
pinseq=6
T 2800 355 9 8 1 1 90 0 1
pinlabel=USBDP4
T 2800 350 5 8 0 1 90 2 1
pintype=io
}
P 3100 0 3100 300 1 0 0
{
T 3050 205 5 8 1 1 90 6 1
pinnumber=7
T 3150 200 5 8 0 1 90 8 1
pinseq=7
T 3100 355 9 8 1 1 90 0 1
pinlabel=VDDA33
T 3100 350 5 8 0 1 90 2 1
pintype=in
}
P 3400 0 3400 300 1 0 0
{
T 3350 205 5 8 1 1 90 6 1
pinnumber=8
T 3450 200 5 8 0 1 90 8 1
pinseq=8
T 3400 355 9 8 1 1 90 0 1
pinlabel=USBDP5
T 3400 350 5 8 0 1 90 2 1
pintype=out
}
P 3700 0 3700 300 1 0 0
{
T 3650 205 5 8 1 1 90 6 1
pinnumber=9
T 3750 200 5 8 0 1 90 8 1
pinseq=9
T 3700 355 9 8 1 1 90 0 1
pinlabel=USBDN5
T 3700 350 5 8 0 1 90 2 1
pintype=in
}
P 4000 0 4000 300 1 0 0
{
T 3950 205 5 8 1 1 90 6 1
pinnumber=10
T 4050 200 5 8 0 1 90 8 1
pinseq=10
T 4000 355 9 8 1 1 90 0 1
pinlabel=VSS
T 4000 350 5 8 0 1 90 2 1
pintype=out
}
P 4600 0 4600 300 1 0 0
{
T 4550 205 5 8 1 1 90 6 1
pinnumber=12
T 4650 200 5 8 0 1 90 8 1
pinseq=12
T 4600 355 9 8 1 1 90 0 1
pinlabel=USBDP6
T 4600 350 5 8 0 1 90 2 1
pintype=in
}
P 4900 0 4900 300 1 0 0
{
T 4850 205 5 8 1 1 90 6 1
pinnumber=13
T 4950 200 5 8 0 1 90 8 1
pinseq=13
T 4900 355 9 8 1 1 90 0 1
pinlabel=VCCINT
T 4900 350 5 8 0 1 90 2 1
pintype=io
}
P 5200 0 5200 300 1 0 0
{
T 5150 205 5 8 1 1 90 6 1
pinnumber=14
T 5250 200 5 8 0 1 90 8 1
pinseq=14
T 5200 355 9 8 1 1 90 0 1
pinlabel=USBDP7
T 5200 350 5 8 0 1 90 2 1
pintype=io
}
P 5500 0 5500 300 1 0 0
{
T 5450 205 5 8 1 1 90 6 1
pinnumber=15
T 5550 200 5 8 0 1 90 8 1
pinseq=15
T 5500 355 9 8 1 1 90 0 1
pinlabel=USBDN7
T 5500 350 5 8 0 1 90 2 1
pintype=io
}
P 5800 0 5800 300 1 0 0
{
T 5750 205 5 8 1 1 90 6 1
pinnumber=16
T 5850 200 5 8 0 1 90 8 1
pinseq=16
T 5800 355 9 8 1 1 90 0 1
pinlabel=VSS
T 5800 350 5 8 0 1 90 2 1
pintype=io
}
P 6100 0 6100 300 1 0 0
{
T 6050 205 5 8 1 1 90 6 1
pinnumber=17
T 6150 200 5 8 0 1 90 8 1
pinseq=17
T 6100 355 9 8 1 1 90 0 1
pinlabel=TEST0
T 6100 350 5 8 0 1 90 2 1
pintype=io
}
P 6400 0 6400 300 1 0 0
{
T 6350 205 5 8 1 1 90 6 1
pinnumber=18
T 6450 200 5 8 0 1 90 8 1
pinseq=18
T 6400 355 9 8 1 1 90 0 1
pinlabel=TEST1
T 6400 350 5 8 0 1 90 2 1
pintype=io
}
P 6700 0 6700 300 1 0 0
{
T 6650 205 5 8 1 1 90 6 1
pinnumber=19
T 6750 200 5 8 0 1 90 8 1
pinseq=19
T 6700 355 9 8 1 1 90 0 1
pinlabel=SELF_PWR
T 6700 350 5 8 0 1 90 2 1
pintype=io
}
P 7000 0 7000 300 1 0 0
{
T 6950 205 5 8 1 1 90 6 1
pinnumber=20
T 7050 200 5 8 0 1 90 8 1
pinseq=20
T 7000 355 9 8 1 1 90 0 1
pinlabel=CFG_SEL1
T 7000 350 5 8 0 1 90 2 1
pintype=io
}
P 8400 1600 8100 1600 1 0 0
{
T 8195 1645 5 8 1 1 0 0 1
pinnumber=22
T 8200 1650 5 8 0 1 180 8 1
pinseq=22
T 8045 1595 9 8 1 1 0 6 1
pinlabel=SDA/SMBDATA
T 8050 1600 5 8 0 1 180 2 1
pintype=io
}
P 8400 1900 8100 1900 1 0 0
{
T 8195 1945 5 8 1 1 0 0 1
pinnumber=23
T 8200 1950 5 8 0 1 180 8 1
pinseq=23
T 8045 1895 9 8 1 1 0 6 1
pinlabel=AM1/GANG_EN
T 8050 1900 5 8 0 1 180 2 1
pintype=io
}
P 8400 2200 8100 2200 1 0 0
{
T 8195 2245 5 8 1 1 0 0 1
pinnumber=24
T 8200 2250 5 8 0 1 180 8 1
pinseq=24
T 8045 2195 9 8 1 1 0 6 1
pinlabel=GR1/NON_REM0
T 8050 2200 5 8 0 1 180 2 1
pintype=io
}
P 8400 3100 8100 3100 1 0 0
{
T 8195 3145 5 8 1 1 0 0 1
pinnumber=27
T 8200 3150 5 8 0 1 180 8 1
pinseq=27
T 8045 3095 9 8 1 1 0 6 1
pinlabel=AM3
T 8050 3100 5 8 0 1 180 2 1
pintype=io
}
P 8400 3400 8100 3400 1 0 0
{
T 8195 3445 5 8 1 1 0 0 1
pinnumber=28
T 8200 3450 5 8 0 1 180 8 1
pinseq=28
T 8045 3395 9 8 1 1 0 6 1
pinlabel=GR3/PRT_DIS0
T 8050 3400 5 8 0 1 180 2 1
pintype=io
}
P 8400 3700 8100 3700 1 0 0
{
T 8195 3745 5 8 1 1 0 0 1
pinnumber=29
T 8200 3750 5 8 0 1 180 8 1
pinseq=29
T 8045 3695 9 8 1 1 0 6 1
pinlabel=AM4/LED_EN
T 8050 3700 5 8 0 1 180 2 1
pintype=io
}
P 8400 4000 8100 4000 1 0 0
{
T 8195 4045 5 8 1 1 0 0 1
pinnumber=30
T 8200 4050 5 8 0 1 180 8 1
pinseq=30
T 8045 3995 9 8 1 1 0 6 1
pinlabel=GR4/PRT_DIS1
T 8050 4000 5 8 0 1 180 2 1
pintype=io
}
P 8400 4300 8100 4300 1 0 0
{
T 8195 4345 5 8 1 1 0 0 1
pinnumber=31
T 8200 4350 5 8 0 1 180 8 1
pinseq=31
T 8045 4295 9 8 1 1 0 6 1
pinlabel=VDD33
T 8050 4300 5 8 0 1 180 2 1
pintype=io
}
P 8400 5200 8100 5200 1 0 0
{
T 8195 5245 5 8 1 1 0 0 1
pinnumber=34
T 8200 5250 5 8 0 1 180 8 1
pinseq=34
T 8045 5195 9 8 1 1 0 6 1
pinlabel=AM5
T 8050 5200 5 8 0 1 180 2 1
pintype=out
}
P 8400 5500 8100 5500 1 0 0
{
T 8195 5545 5 8 1 1 0 0 1
pinnumber=35
T 8200 5550 5 8 0 1 180 8 1
pinseq=35
T 8045 5495 9 8 1 1 0 6 1
pinlabel=GR5
T 8050 5500 5 8 0 1 180 2 1
pintype=out
}
P 8400 5800 8100 5800 1 0 0
{
T 8195 5845 5 8 1 1 0 0 1
pinnumber=36
T 8200 5850 5 8 0 1 180 8 1
pinseq=36
T 8045 5795 9 8 1 1 0 6 1
pinlabel=AM6
T 8050 5800 5 8 0 1 180 2 1
pintype=in
}
P 8400 6100 8100 6100 1 0 0
{
T 8195 6145 5 8 1 1 0 0 1
pinnumber=37
T 8200 6150 5 8 0 1 180 8 1
pinseq=37
T 8045 6095 9 8 1 1 0 6 1
pinlabel=GR6
T 8050 6100 5 8 0 1 180 2 1
pintype=in
}
P 8400 6400 8100 6400 1 0 0
{
T 8195 6445 5 8 1 1 0 0 1
pinnumber=38
T 8200 6450 5 8 0 1 180 8 1
pinseq=38
T 8045 6395 9 8 1 1 0 6 1
pinlabel=AM7
T 8050 6400 5 8 0 1 180 2 1
pintype=in
}
P 8400 6700 8100 6700 1 0 0
{
T 8195 6745 5 8 1 1 0 0 1
pinnumber=39
T 8200 6750 5 8 0 1 180 8 1
pinseq=39
T 8045 6695 9 8 1 1 0 6 1
pinlabel=GR7
T 8050 6700 5 8 0 1 180 2 1
pintype=in
}
P 8400 7000 8100 7000 1 0 0
{
T 8195 7045 5 8 1 1 0 0 1
pinnumber=40
T 8200 7050 5 8 0 1 180 8 1
pinseq=40
T 8045 6995 9 8 1 1 0 6 1
pinlabel=PRTPWR1
T 8050 7000 5 8 0 1 180 2 1
pintype=in
}
P 7000 8300 7000 8000 1 0 0
{
T 6950 8095 5 8 1 1 90 0 1
pinnumber=41
T 6950 8100 5 8 0 1 270 8 1
pinseq=41
T 7000 7945 9 8 1 1 90 6 1
pinlabel=OCS1_N
T 7000 7950 5 8 0 1 270 2 1
pintype=in
}
P 6700 8300 6700 8000 1 0 0
{
T 6650 8095 5 8 1 1 90 0 1
pinnumber=42
T 6650 8100 5 8 0 1 270 8 1
pinseq=42
T 6700 7945 9 8 1 1 90 6 1
pinlabel=PRTPWR2
T 6700 7950 5 8 0 1 270 2 1
pintype=in
}
P 6400 8300 6400 8000 1 0 0
{
T 6350 8095 5 8 1 1 90 0 1
pinnumber=43
T 6350 8100 5 8 0 1 270 8 1
pinseq=43
T 6400 7945 9 8 1 1 90 6 1
pinlabel=OCS2_N
T 6400 7950 5 8 0 1 270 2 1
pintype=in
}
P 5800 8300 5800 8000 1 0 0
{
T 5750 8095 5 8 1 1 90 0 1
pinnumber=45
T 5750 8100 5 8 0 1 270 8 1
pinseq=45
T 5800 7945 9 8 1 1 90 6 1
pinlabel=OCS3_N
T 5800 7950 5 8 0 1 270 2 1
pintype=in
}
P 5500 8300 5500 8000 1 0 0
{
T 5450 8095 5 8 1 1 90 0 1
pinnumber=46
T 5450 8100 5 8 0 1 270 8 1
pinseq=46
T 5500 7945 9 8 1 1 90 6 1
pinlabel=PRTPWR4
T 5500 7950 5 8 0 1 270 2 1
pintype=in
}
P 5200 8300 5200 8000 1 0 0
{
T 5150 8095 5 8 1 1 90 0 1
pinnumber=47
T 5150 8100 5 8 0 1 270 8 1
pinseq=47
T 5200 7945 9 8 1 1 90 6 1
pinlabel=OCS4_N
T 5200 7950 5 8 0 1 270 2 1
pintype=in
}
P 4900 8300 4900 8000 1 0 0
{
T 4850 8095 5 8 1 1 90 0 1
pinnumber=48
T 4850 8100 5 8 0 1 270 8 1
pinseq=48
T 4900 7945 9 8 1 1 90 6 1
pinlabel=PRTPWR5
T 4900 7950 5 8 0 1 270 2 1
pintype=in
}
P 4600 8300 4600 8000 1 0 0
{
T 4550 8095 5 8 1 1 90 0 1
pinnumber=49
T 4550 8100 5 8 0 1 270 8 1
pinseq=49
T 4600 7945 9 8 1 1 90 6 1
pinlabel=VSS
T 4600 7950 5 8 0 1 270 2 1
pintype=tp
}
P 4300 8300 4300 8000 1 0 0
{
T 4250 8095 5 8 1 1 90 0 1
pinnumber=50
T 4250 8100 5 8 0 1 270 8 1
pinseq=50
T 4300 7945 9 8 1 1 90 6 1
pinlabel=VDD18
T 4300 7950 5 8 0 1 270 2 1
pintype=tp
}
P 4000 8300 4000 8000 1 0 0
{
T 3950 8095 5 8 1 1 90 0 1
pinnumber=51
T 4050 8100 5 8 0 1 90 2 1
pinseq=51
T 4000 7945 9 8 1 1 90 6 1
pinlabel=VDD33CR
T 4000 7950 5 8 0 1 90 8 1
pintype=in
}
P 3700 8300 3700 8000 1 0 0
{
T 3650 8095 5 8 1 1 90 0 1
pinnumber=52
T 3750 8100 5 8 0 1 90 2 1
pinseq=52
T 3700 7945 9 8 1 1 90 6 1
pinlabel=OCS5_N
T 3700 7950 5 8 0 1 90 8 1
pintype=in
}
P 3400 8300 3400 8000 1 0 0
{
T 3350 8095 5 8 1 1 90 0 1
pinnumber=53
T 3450 8100 5 8 0 1 90 2 1
pinseq=53
T 3400 7945 9 8 1 1 90 6 1
pinlabel=PRTPWR6
T 3400 7950 5 8 0 1 90 8 1
pintype=in
}
P 3100 8300 3100 8000 1 0 0
{
T 3050 8095 5 8 1 1 90 0 1
pinnumber=54
T 3150 8100 5 8 0 1 90 2 1
pinseq=54
T 3100 7945 9 8 1 1 90 6 1
pinlabel=OCS6_N
T 3100 7950 5 8 0 1 90 8 1
pintype=in
}
P 1900 8300 1900 8000 1 0 0
{
T 1850 8095 5 8 1 1 90 0 1
pinnumber=58
T 1950 8100 5 8 0 1 90 2 1
pinseq=58
T 1900 7945 9 8 1 1 90 6 1
pinlabel=PRTPWR_POL
T 1900 7950 5 8 0 1 90 8 1
pintype=io
}
P 1600 8300 1600 8000 1 0 0
{
T 1550 8095 5 8 1 1 90 0 1
pinnumber=59
T 1650 8100 5 8 0 1 90 2 1
pinseq=59
T 1600 7945 9 8 1 1 90 6 1
pinlabel=RESET_N
T 1600 7950 5 8 0 1 90 8 1
pintype=io
}
P 1300 8300 1300 8000 1 0 0
{
T 1250 8095 5 8 1 1 90 0 1
pinnumber=60
T 1350 8100 5 8 0 1 90 2 1
pinseq=60
T 1300 7945 9 8 1 1 90 6 1
pinlabel=VBUS_NET
T 1300 7950 5 8 0 1 90 8 1
pintype=io
}
P 0 5500 300 5500 1 0 0
{
T 205 5545 5 8 1 1 0 6 1
pinnumber=66
T 200 5550 5 8 0 1 180 2 1
pinseq=66
T 355 5495 9 8 1 1 0 0 1
pinlabel=USBDP1
T 350 5500 5 8 0 1 180 8 1
pintype=io
}
P 0 5200 300 5200 1 0 0
{
T 205 5245 5 8 1 1 0 6 1
pinnumber=67
T 200 5250 5 8 0 1 180 2 1
pinseq=67
T 355 5195 9 8 1 1 0 0 1
pinlabel=VDDA33
T 350 5200 5 8 0 1 180 8 1
pintype=io
}
P 0 4900 300 4900 1 0 0
{
T 205 4945 5 8 1 1 0 6 1
pinnumber=68
T 200 4950 5 8 0 1 180 2 1
pinseq=68
T 355 4895 9 8 1 1 0 0 1
pinlabel=USBDP2
T 350 4900 5 8 0 1 180 8 1
pintype=io
}
P 0 4600 300 4600 1 0 0
{
T 205 4645 5 8 1 1 0 6 1
pinnumber=69
T 200 4650 5 8 0 1 180 2 1
pinseq=69
T 355 4595 9 8 1 1 0 0 1
pinlabel=USBDN2
T 350 4600 5 8 0 1 180 8 1
pintype=io
}
P 0 4300 300 4300 1 0 0
{
T 205 4345 5 8 1 1 0 6 1
pinnumber=70
T 200 4350 5 8 0 1 180 2 1
pinseq=70
T 355 4295 9 8 1 1 0 0 1
pinlabel=VSS
T 350 4300 5 8 0 1 180 8 1
pintype=io
}
P 0 4000 300 4000 1 0 0
{
T 205 4045 5 8 1 1 0 6 1
pinnumber=71
T 200 4050 5 8 0 1 180 2 1
pinseq=71
T 355 3995 9 8 1 1 0 0 1
pinlabel=VSS
T 350 4000 5 8 0 1 180 8 1
pintype=io
}
P 0 3700 300 3700 1 0 0
{
T 205 3745 5 8 1 1 0 6 1
pinnumber=72
T 200 3750 5 8 0 1 180 2 1
pinseq=72
T 355 3695 9 8 1 1 0 0 1
pinlabel=VDD18
T 350 3700 5 8 0 1 180 8 1
pintype=io
}
P 0 3400 300 3400 1 0 0
{
T 205 3445 5 8 1 1 0 6 1
pinnumber=73
T 200 3450 5 8 0 1 180 2 1
pinseq=73
T 355 3395 9 8 1 1 0 0 1
pinlabel=VSS
T 350 3400 5 8 0 1 180 8 1
pintype=io
}
P 0 3100 300 3100 1 0 0
{
T 205 3145 5 8 1 1 0 6 1
pinnumber=74
T 200 3150 5 8 0 1 180 2 1
pinseq=74
T 355 3095 9 8 1 1 0 0 1
pinlabel=XTAL2
T 350 3100 5 8 0 1 180 8 1
pintype=io
}
P 0 2500 300 2500 1 0 0
{
T 205 2545 5 8 1 1 0 6 1
pinnumber=76
T 200 2550 5 8 0 1 0 6 1
pinseq=76
T 355 2495 9 8 1 1 0 0 1
pinlabel=VDDA18PLL
T 350 2500 5 8 0 1 0 0 1
pintype=tp
}
P 0 2200 300 2200 1 0 0
{
T 205 2245 5 8 1 1 0 6 1
pinnumber=77
T 200 2250 5 8 0 1 180 2 1
pinseq=77
T 355 2195 9 8 1 1 0 0 1
pinlabel=VDDA33PLL
T 350 2200 5 8 0 1 180 8 1
pintype=io
}
P 0 1900 300 1900 1 0 0
{
T 205 1945 5 8 1 1 0 6 1
pinnumber=78
T 200 1950 5 8 0 1 180 2 1
pinseq=78
T 355 1895 9 8 1 1 0 0 1
pinlabel=TEST/REG_EN
T 350 1900 5 8 0 1 180 8 1
pintype=io
}
P 0 1600 300 1600 1 0 0
{
T 205 1645 5 8 1 1 0 6 1
pinnumber=79
T 200 1650 5 8 0 1 180 2 1
pinseq=79
T 355 1595 9 8 1 1 0 0 1
pinlabel=RBIAS
T 350 1600 5 8 0 1 180 8 1
pintype=io
}
P 0 1300 300 1300 1 0 0
{
T 205 1345 5 8 1 1 0 6 1
pinnumber=80
T 200 1350 5 8 0 1 180 2 1
pinseq=80
T 355 1295 9 8 1 1 0 0 1
pinlabel=VSS
T 350 1300 5 8 0 1 180 8 1
pintype=io
}
B 300 300 7800 7700 3 0 0 0 -1 -1 0 -1 -1 -1 -1 -1
T 8100 8200 8 10 1 1 180 0 1
value=USB2507
P 4300 0 4300 300 1 0 0
{
T 4250 205 5 8 1 1 90 6 1
pinnumber=11
T 4350 200 5 8 0 1 90 8 1
pinseq=11
T 4300 355 9 8 1 1 90 0 1
pinlabel=USBDN6
T 4300 350 5 8 0 1 90 2 1
pintype=out
}
P 8400 1300 8100 1300 1 0 0
{
T 8195 1345 5 8 1 1 0 0 1
pinnumber=21
T 8045 1295 9 8 1 1 0 6 1
pinlabel=SCL/SMBCLK/SEL_CFG0
T 8050 1300 5 8 0 1 180 2 1
pintype=io
T 8400 1300 5 10 0 1 180 0 1
pinseq=21
}
P 8400 2500 8100 2500 1 0 0
{
T 8195 2545 5 8 1 1 0 0 1
pinnumber=25
T 8200 2550 5 8 0 1 180 8 1
pinseq=25
T 8045 2495 9 8 1 1 0 6 1
pinlabel=AM2/MTT_EN
T 8050 2500 5 8 0 1 180 2 1
pintype=io
}
P 8400 2800 8100 2800 1 0 0
{
T 8195 2845 5 8 1 1 0 0 1
pinnumber=26
T 8200 2850 5 8 0 1 180 8 1
pinseq=26
T 8045 2795 9 8 1 1 0 6 1
pinlabel=GR2/NON_REM1
T 8050 2800 5 8 0 1 180 2 1
pintype=io
}
P 8400 4600 8100 4600 1 0 0
{
T 8195 4645 5 8 1 1 0 0 1
pinnumber=32
T 8200 4650 5 8 0 1 180 8 1
pinseq=32
T 8045 4595 9 8 1 1 0 6 1
pinlabel=VSS
T 8050 4600 5 8 0 1 180 2 1
pintype=out
}
P 8400 4900 8100 4900 1 0 0
{
T 8195 4945 5 8 1 1 0 0 1
pinnumber=33
T 8200 4950 5 8 0 1 180 8 1
pinseq=33
T 8045 4895 9 8 1 1 0 6 1
pinlabel=VDD18
T 8050 4900 5 8 0 1 180 2 1
pintype=out
}
P 6100 8300 6100 8000 1 0 0
{
T 6050 8095 5 8 1 1 90 0 1
pinnumber=44
T 6050 8100 5 8 0 1 270 8 1
pinseq=44
T 6100 7945 9 8 1 1 90 6 1
pinlabel=PRTPWR3
T 6100 7950 5 8 0 1 270 2 1
pintype=in
}
P 2800 8300 2800 8000 1 0 0
{
T 2750 8095 5 8 1 1 90 0 1
pinnumber=55
T 2850 8100 5 8 0 1 90 2 1
pinseq=55
T 2800 7945 9 8 1 1 90 6 1
pinlabel=PRTPWR7
T 2800 7950 5 8 0 1 90 8 1
pintype=in
}
P 2500 8300 2500 8000 1 0 0
{
T 2450 8095 5 8 1 1 90 0 1
pinnumber=56
T 2550 8100 5 8 0 1 90 2 1
pinseq=56
T 2500 7945 9 8 1 1 90 6 1
pinlabel=OCS7_N
T 2500 7950 5 8 0 1 90 8 1
pintype=in
}
P 0 7000 300 7000 1 0 0
{
T 205 7045 5 8 1 1 0 6 1
pinnumber=61
T 200 7050 5 8 0 1 180 2 1
pinseq=61
T 355 6995 9 8 1 1 0 0 1
pinlabel=VDDA33
T 350 7000 5 8 0 1 180 8 1
pintype=io
}
P 0 6700 300 6700 1 0 0
{
T 205 6745 5 8 1 1 0 6 1
pinnumber=62
T 200 6750 5 8 0 1 180 2 1
pinseq=62
T 355 6695 9 8 1 1 0 0 1
pinlabel=USBDP0
T 350 6700 5 8 0 1 180 8 1
pintype=io
}
P 0 6400 300 6400 1 0 0
{
T 205 6445 5 8 1 1 0 6 1
pinnumber=63
T 200 6450 5 8 0 1 180 2 1
pinseq=63
T 355 6395 9 8 1 1 0 0 1
pinlabel=USBDN0
T 350 6400 5 8 0 1 180 8 1
pintype=io
}
P 0 6100 300 6100 1 0 0
{
T 205 6145 5 8 1 1 0 6 1
pinnumber=64
T 200 6150 5 8 0 1 180 2 1
pinseq=64
T 355 6095 9 8 1 1 0 0 1
pinlabel=VSS
T 350 6100 5 8 0 1 180 8 1
pintype=io
}
P 0 5800 300 5800 1 0 0
{
T 205 5845 5 8 1 1 0 6 1
pinnumber=65
T 200 5850 5 8 0 1 180 2 1
pinseq=65
T 355 5795 9 8 1 1 0 0 1
pinlabel=USBDN1
T 350 5800 5 8 0 1 180 8 1
pintype=io
}
P 0 2800 300 2800 1 0 0
{
T 205 2845 5 8 1 1 0 6 1
pinnumber=75
T 200 2850 5 8 0 1 180 2 1
pinseq=75
T 355 2795 9 8 1 1 0 0 1
pinlabel=XTAL1/CLKIN
T 350 2800 5 8 0 1 180 8 1
pintype=io
}
P 2200 8300 2200 8000 1 0 0
{
T 2150 8095 5 8 1 1 90 0 1
pinnumber=57
T 2250 8100 5 8 0 1 90 2 1
pinseq=57
T 2200 7945 9 8 1 1 90 6 1
pinlabel=CLKIN_EN
T 2200 7950 5 8 0 1 90 8 1
pintype=io
}
