v 20040111 1
T 2800 1000 2 10 1 1 0 6 1
refdes=U?
P 500 0 500 300 1 0 0
{
T 500 350 3 8 1 1 0 3 1
label=gnd
T 500 100 5 10 1 1 90 0 1
pinnumber=1
}
P 800 0 800 300 1 0 0
{
T 800 350 3 8 1 1 0 3 1
label=gnd
T 800 100 5 10 1 1 90 0 1
pinnumber=3
}
P 1100 0 1100 300 1 0 0
{
T 1100 350 3 8 1 1 0 3 1
label=gnd
T 1100 100 5 10 1 1 90 0 1
pinnumber=4
}
P 1400 0 1400 300 1 0 0
{
T 1400 350 3 8 1 1 0 3 1
label=gnd
T 1400 100 5 10 1 1 90 0 1
pinnumber=6
}
P 1700 0 1700 300 1 0 0
{
T 1700 350 3 8 1 1 0 3 1
label=gnd
T 1700 100 5 10 1 1 90 0 1
pinnumber=7
}
P 1400 1200 1400 900 1 0 0
{
T 1400 850 3 8 1 1 0 5 1
label=vcc
T 1400 1000 5 10 1 1 90 0 1
pinnumber=2
}
P 2800 600 2500 600 1 0 0
{
T 2450 600 3 8 1 1 0 6 1
label=out
T 2600 600 5 10 1 1 0 0 1
pinnumber=13
}
P 0 600 300 600 1 0 0
{
T 350 600 3 8 1 1 0 0 1
label=in
T 100 600 5 10 1 1 0 0 1
pinnumber=5
}
B 300 300 2200 600 3 0 0 0 -1 -1 0 -1 -1 -1 -1 -1
P 2000 0 2000 300 1 0 0
{
T 2000 350 3 8 1 1 0 3 1
label=gnd
T 2000 100 5 10 1 1 90 0 1
pinnumber=8
}
P 2300 0 2300 300 1 0 0
{
T 2300 350 3 8 1 1 0 3 1
label=gnd
T 2300 100 5 10 1 1 90 0 1
pinnumber=9
}
P 2300 1200 2300 900 1 0 0
{
T 2300 850 3 8 1 1 180 3 1
label=gnd
T 2300 1000 5 10 1 1 90 0 1
pinnumber=10
}
P 2000 1200 2000 900 1 0 0
{
T 2000 850 3 8 1 1 180 3 1
label=gnd
T 2000 1000 5 10 1 1 90 0 1
pinnumber=11
}
P 800 1200 800 900 1 0 0
{
T 800 850 3 8 1 1 180 3 1
label=gnd
T 800 1000 5 10 1 1 90 0 1
pinnumber=12
}
P 500 1200 500 900 1 0 0
{
T 500 850 3 8 1 1 180 3 1
label=gnd
T 500 1000 5 10 1 1 90 0 1
pinnumber=14
}
