v 20130925 2
P 300 800 0 800 1 0 1
{
T 100 850 5 10 1 1 0 0 1
pinnumber=1
T 200 800 5 10 0 1 0 0 1
pinseq=1
T 400 750 5 10 1 1 0 0 1
pinlabel=I/O1
}
T 1800 1100 8 10 1 1 0 6 1
refdes=U?
B 300 0 1400 1000 3 0 0 0 -1 -1 0 -1 -1 -1 -1 -1
A 1000 1000 129 180 180 3 0 0 0 -1 -1
T 300 1100 8 10 1 1 0 0 1
value=WE-TVS
P 300 500 0 500 1 0 1
{
T 100 550 5 10 1 1 0 0 1
pinnumber=2
T 200 500 5 10 0 1 0 0 1
pinseq=2
T 400 450 5 10 1 1 0 0 1
pinlabel=GND
}
P 300 200 0 200 1 0 1
{
T 100 250 5 10 1 1 0 0 1
pinnumber=3
T 200 200 5 10 0 1 0 0 1
pinseq=3
T 400 150 5 10 1 1 0 0 1
pinlabel=I/O2
}
P 1700 200 2000 200 1 0 1
{
T 1800 250 5 10 1 1 0 0 1
pinnumber=4
T 1800 200 5 10 0 1 0 6 1
pinseq=4
T 1600 150 5 10 1 1 0 6 1
pinlabel=I/O3
}
P 1700 500 2000 500 1 0 1
{
T 1900 550 5 10 1 1 0 6 1
pinnumber=5
T 1800 500 5 10 0 1 0 6 1
pinseq=5
T 1600 450 5 10 1 1 0 6 1
pinlabel=VDD
}
P 1700 800 2000 800 1 0 1
{
T 1900 850 5 10 1 1 0 6 1
pinnumber=6
T 1800 800 5 10 0 1 0 6 1
pinseq=6
T 1600 750 5 10 1 1 0 6 1
pinlabel=I/O4
}
